<?xml version="1.0" encoding="UTF-8"?>
<svg xmlns="http://www.w3.org/2000/svg" xmlns:xlink="http://www.w3.org/1999/xlink" width="432pt" height="288pt" viewBox="0 0 432 288" version="1.2">
<defs>
<g>
<symbol overflow="visible" id="glyph0-0">
<path style="stroke:none;" d=""/>
</symbol>
<symbol overflow="visible" id="glyph0-1">
<path style="stroke:none;" d="M 6.25 -4.46875 C 6.25 -5.625 6.1875 -6.75 5.671875 -7.8125 C 5.109375 -8.96875 4.109375 -9.28125 3.421875 -9.28125 C 2.609375 -9.28125 1.625 -8.875 1.109375 -7.71875 C 0.71875 -6.84375 0.578125 -5.96875 0.578125 -4.46875 C 0.578125 -3.109375 0.671875 -2.09375 1.171875 -1.109375 C 1.71875 -0.046875 2.671875 0.296875 3.40625 0.296875 C 4.625 0.296875 5.3125 -0.4375 5.71875 -1.234375 C 6.21875 -2.28125 6.25 -3.65625 6.25 -4.46875 Z M 5.1875 -4.625 C 5.1875 -3.703125 5.1875 -2.640625 5.03125 -1.78125 C 4.765625 -0.25 3.890625 0.015625 3.40625 0.015625 C 2.953125 0.015625 2.046875 -0.234375 1.78125 -1.765625 C 1.625 -2.59375 1.625 -3.65625 1.625 -4.625 C 1.625 -5.78125 1.625 -6.8125 1.859375 -7.625 C 2.09375 -8.5625 2.796875 -9 3.40625 -9 C 3.9375 -9 4.75 -8.671875 5.015625 -7.484375 C 5.1875 -6.6875 5.1875 -5.578125 5.1875 -4.625 Z "/>
</symbol>
<symbol overflow="visible" id="glyph0-2">
<path style="stroke:none;" d="M 2.5625 -0.6875 C 2.5625 -1.0625 2.25 -1.359375 1.890625 -1.359375 C 1.5 -1.359375 1.21875 -1.03125 1.21875 -0.6875 C 1.21875 -0.265625 1.5625 0 1.890625 0 C 2.265625 0 2.5625 -0.296875 2.5625 -0.6875 Z "/>
</symbol>
<symbol overflow="visible" id="glyph0-3">
<path style="stroke:none;" d="M 6.25 -4.59375 C 6.25 -8.34375 4.6875 -9.28125 3.453125 -9.28125 C 1.921875 -9.28125 0.578125 -8 0.578125 -6.15625 C 0.578125 -4.3125 1.875 -3.0625 3.265625 -3.0625 C 4.296875 -3.0625 4.828125 -3.8125 5.109375 -4.515625 L 5.109375 -4.0625 C 5.109375 -0.765625 3.640625 -0.078125 2.796875 -0.078125 C 2.46875 -0.078125 1.734375 -0.125 1.375 -0.609375 L 1.46875 -0.609375 C 1.5625 -0.59375 2.0625 -0.671875 2.0625 -1.1875 C 2.0625 -1.5 1.859375 -1.765625 1.5 -1.765625 C 1.125 -1.765625 0.90625 -1.515625 0.90625 -1.15625 C 0.90625 -0.296875 1.609375 0.296875 2.8125 0.296875 C 4.5625 0.296875 6.25 -1.5625 6.25 -4.59375 Z M 5.078125 -5.84375 C 5.078125 -4.671875 4.546875 -3.328125 3.328125 -3.328125 C 2.4375 -3.328125 2.0625 -4.046875 1.9375 -4.3125 C 1.71875 -4.84375 1.71875 -5.515625 1.71875 -6.140625 C 1.71875 -6.921875 1.71875 -7.59375 2.078125 -8.15625 C 2.328125 -8.546875 2.703125 -8.9375 3.453125 -8.9375 C 4.25 -8.9375 4.65625 -8.25 4.796875 -7.921875 C 5.078125 -7.234375 5.078125 -6.0625 5.078125 -5.84375 Z "/>
</symbol>
<symbol overflow="visible" id="glyph0-4">
<path style="stroke:none;" d="M 6.25 -2.3125 C 6.25 -3.734375 5.25 -4.375 4.15625 -5.03125 C 4.859375 -5.40625 5.875 -6.0625 5.875 -7.234375 C 5.875 -8.4375 4.703125 -9.28125 3.421875 -9.28125 C 2.03125 -9.28125 0.953125 -8.265625 0.953125 -6.984375 C 0.953125 -6.515625 1.09375 -6.046875 1.484375 -5.5625 C 1.625 -5.390625 1.640625 -5.375 2.625 -4.6875 C 1.265625 -4.0625 0.578125 -3.125 0.578125 -2.109375 C 0.578125 -0.625 1.984375 0.296875 3.40625 0.296875 C 4.953125 0.296875 6.25 -0.84375 6.25 -2.3125 Z M 5.296875 -7.21875 C 5.296875 -6.359375 4.6875 -5.671875 3.875 -5.234375 L 2.265625 -6.296875 C 2.078125 -6.421875 1.515625 -6.78125 1.515625 -7.46875 C 1.515625 -8.375 2.46875 -8.9375 3.40625 -8.9375 C 4.40625 -8.9375 5.296875 -8.21875 5.296875 -7.21875 Z M 5.609375 -1.875 C 5.609375 -0.8125 4.53125 -0.078125 3.421875 -0.078125 C 2.234375 -0.078125 1.21875 -0.953125 1.21875 -2.109375 C 1.21875 -3.1875 2.015625 -4.078125 2.921875 -4.5 L 4.609375 -3.390625 C 4.96875 -3.15625 5.609375 -2.71875 5.609375 -1.875 Z "/>
</symbol>
<symbol overflow="visible" id="glyph0-5">
<path style="stroke:none;" d="M 6.25 -2.84375 C 6.25 -4.703125 4.953125 -5.9375 3.5625 -5.9375 C 2.3125 -5.9375 1.859375 -4.875 1.71875 -4.484375 L 1.71875 -4.859375 C 1.71875 -8.390625 3.4375 -8.9375 4.1875 -8.9375 C 4.6875 -8.9375 5.1875 -8.796875 5.453125 -8.375 C 5.28125 -8.375 4.765625 -8.375 4.765625 -7.796875 C 4.765625 -7.5 4.96875 -7.234375 5.328125 -7.234375 C 5.671875 -7.234375 5.921875 -7.4375 5.921875 -7.84375 C 5.921875 -8.5625 5.390625 -9.28125 4.171875 -9.28125 C 2.40625 -9.28125 0.578125 -7.484375 0.578125 -4.40625 C 0.578125 -0.578125 2.25 0.296875 3.4375 0.296875 C 4.953125 0.296875 6.25 -1.03125 6.25 -2.84375 Z M 5.109375 -2.859375 C 5.109375 -2.15625 5.109375 -1.515625 4.84375 -0.984375 C 4.5 -0.328125 3.984375 -0.078125 3.4375 -0.078125 C 2.546875 -0.078125 2.140625 -0.859375 2.015625 -1.15625 C 1.890625 -1.515625 1.75 -2.203125 1.75 -3.1875 C 1.75 -4.28125 2.25 -5.671875 3.5 -5.671875 C 4.265625 -5.671875 4.671875 -5.15625 4.890625 -4.671875 C 5.109375 -4.15625 5.109375 -3.453125 5.109375 -2.859375 Z "/>
</symbol>
<symbol overflow="visible" id="glyph0-6">
<path style="stroke:none;" d="M 6.140625 -2.34375 L 5.828125 -2.34375 C 5.796875 -2.109375 5.671875 -1.34375 5.546875 -1.109375 C 5.4375 -0.984375 4.640625 -0.984375 4.234375 -0.984375 L 1.640625 -0.984375 C 2.015625 -1.3125 2.875 -2.203125 3.234375 -2.546875 C 5.359375 -4.5 6.140625 -5.21875 6.140625 -6.59375 C 6.140625 -8.203125 4.875 -9.28125 3.25 -9.28125 C 1.625 -9.28125 0.6875 -7.890625 0.6875 -6.703125 C 0.6875 -5.984375 1.296875 -5.984375 1.34375 -5.984375 C 1.625 -5.984375 2 -6.1875 2 -6.640625 C 2 -7.03125 1.734375 -7.296875 1.34375 -7.296875 C 1.21875 -7.296875 1.1875 -7.296875 1.140625 -7.28125 C 1.40625 -8.234375 2.15625 -8.875 3.0625 -8.875 C 4.25 -8.875 4.984375 -7.890625 4.984375 -6.59375 C 4.984375 -5.40625 4.296875 -4.375 3.5 -3.484375 L 0.6875 -0.328125 L 0.6875 0 L 5.78125 0 Z "/>
</symbol>
<symbol overflow="visible" id="glyph0-7">
<path style="stroke:none;" d="M 6.453125 -2.328125 L 6.453125 -2.734375 L 5.03125 -2.734375 L 5.03125 -9.078125 C 5.03125 -9.34375 5.03125 -9.421875 4.84375 -9.421875 C 4.734375 -9.421875 4.6875 -9.421875 4.578125 -9.25 L 0.375 -2.734375 L 0.375 -2.328125 L 4.046875 -2.328125 L 4.046875 -1.0625 C 4.046875 -0.546875 4.015625 -0.40625 3 -0.40625 L 2.71875 -0.40625 L 2.71875 0 C 3.046875 -0.03125 4.140625 -0.03125 4.53125 -0.03125 C 4.921875 -0.03125 6.046875 -0.03125 6.359375 0 L 6.359375 -0.40625 L 6.078125 -0.40625 C 5.078125 -0.40625 5.03125 -0.546875 5.03125 -1.0625 L 5.03125 -2.328125 Z M 4.109375 -2.734375 L 0.71875 -2.734375 L 4.109375 -8 Z "/>
</symbol>
<symbol overflow="visible" id="glyph0-8">
<path style="stroke:none;" d="M 5.71875 0 L 5.71875 -0.40625 L 5.28125 -0.40625 C 4.0625 -0.40625 4.015625 -0.578125 4.015625 -1.078125 L 4.015625 -8.9375 C 4.015625 -9.265625 4.015625 -9.28125 3.734375 -9.28125 C 3.40625 -8.90625 2.703125 -8.390625 1.265625 -8.390625 L 1.265625 -7.984375 C 1.59375 -7.984375 2.28125 -7.984375 3.0625 -8.34375 L 3.0625 -1.078125 C 3.0625 -0.578125 3.015625 -0.40625 1.78125 -0.40625 L 1.359375 -0.40625 L 1.359375 0 C 1.734375 -0.03125 3.078125 -0.03125 3.546875 -0.03125 C 4 -0.03125 5.34375 -0.03125 5.71875 0 Z "/>
</symbol>
<symbol overflow="visible" id="glyph1-0">
<path style="stroke:none;" d=""/>
</symbol>
<symbol overflow="visible" id="glyph1-1">
<path style="stroke:none;" d="M -2.3125 -4.734375 C -3.5 -4.34375 -3.390625 -4.4375 -4.390625 -4.078125 C -5.625 -3.625 -5.71875 -3.515625 -5.921875 -3.3125 C -6.15625 -3.0625 -6.328125 -2.5625 -6.328125 -2.0625 C -6.328125 -1.265625 -5.578125 -0.875 -5.390625 -0.875 C -5.3125 -0.875 -5.265625 -0.953125 -5.265625 -1.03125 C -5.265625 -1.140625 -5.328125 -1.171875 -5.390625 -1.1875 C -5.953125 -1.40625 -6.03125 -1.84375 -6.03125 -1.984375 C -6.03125 -2.390625 -5 -2.796875 -4.3125 -3.0625 C -3.4375 -3.40625 -2.84375 -3.578125 -1.453125 -3.953125 L 2.390625 -0.578125 C 2.546875 -0.4375 2.609375 -0.4375 2.625 -0.4375 C 2.734375 -0.4375 2.765625 -0.515625 2.765625 -0.578125 C 2.765625 -0.625 2.734375 -0.671875 2.703125 -0.71875 C 2.296875 -1.125 1.234375 -2.015625 0.796875 -2.375 L -1.09375 -4.046875 C 1.125 -4.75 1.140625 -4.75 1.671875 -4.96875 C 2.21875 -5.1875 2.921875 -5.5 2.921875 -6.71875 C 2.921875 -7.53125 2.1875 -7.90625 2 -7.90625 C 1.890625 -7.90625 1.859375 -7.8125 1.859375 -7.75 C 1.859375 -7.625 1.921875 -7.609375 2.03125 -7.578125 C 2.4375 -7.421875 2.640625 -7.046875 2.640625 -6.8125 C 2.640625 -6.625 2.640625 -6.390625 1.046875 -5.765625 C 0.09375 -5.390625 -1.0625 -5.0625 -1.953125 -4.8125 L -5.828125 -8.21875 C -5.953125 -8.328125 -5.96875 -8.34375 -6.03125 -8.34375 C -6.125 -8.34375 -6.171875 -8.28125 -6.171875 -8.203125 C -6.171875 -8.15625 -6.171875 -8.125 -6.015625 -7.96875 Z "/>
</symbol>
<symbol overflow="visible" id="glyph1-2">
<path style="stroke:none;" d="M -5.765625 -2.890625 L -5.765625 -4.203125 C -5.765625 -4.46875 -5.765625 -4.625 -6.03125 -4.625 C -6.1875 -4.625 -6.1875 -4.53125 -6.1875 -4.25 L -6.1875 -2.984375 L -8.28125 -3.515625 C -8.484375 -3.578125 -8.5 -3.578125 -8.609375 -3.578125 C -8.828125 -3.578125 -8.96875 -3.390625 -8.96875 -3.203125 C -8.96875 -3.078125 -8.921875 -2.75 -8.46875 -2.640625 L -6.1875 -2.078125 L -6.1875 -0.734375 C -6.1875 -0.4375 -6.1875 -0.3125 -5.90625 -0.3125 C -5.765625 -0.3125 -5.765625 -0.421875 -5.765625 -0.6875 L -5.765625 -1.96875 L -1.984375 -1.015625 C -1.484375 -0.90625 -1.328125 -0.859375 -1.140625 -0.859375 C -0.46875 -0.859375 0.140625 -1.328125 0.140625 -2.140625 C 0.140625 -3.578125 -1.953125 -4.359375 -2.046875 -4.359375 C -2.140625 -4.359375 -2.1875 -4.296875 -2.1875 -4.21875 C -2.1875 -4.1875 -2.1875 -4.125 -2.125 -4.109375 C -2.109375 -4.09375 -2.09375 -4.078125 -1.859375 -3.96875 C -1.140625 -3.671875 -0.140625 -3.015625 -0.140625 -2.1875 C -0.140625 -1.75 -0.5 -1.71875 -0.8125 -1.71875 C -0.828125 -1.71875 -1.109375 -1.71875 -1.28125 -1.765625 Z "/>
</symbol>
<symbol overflow="visible" id="glyph2-0">
<path style="stroke:none;" d=""/>
</symbol>
<symbol overflow="visible" id="glyph2-1">
<path style="stroke:none;" d="M 0 -7 L -0.296875 -7 L -0.296875 -6.828125 C -0.296875 -6.234375 -0.375 -6.109375 -0.6875 -6 L -6.796875 -3.890625 C -6.921875 -3.84375 -7 -3.8125 -7 -3.65625 C -7 -3.5 -6.9375 -3.484375 -6.796875 -3.421875 L -0.953125 -1.40625 C -0.453125 -1.234375 -0.3125 -0.84375 -0.296875 -0.3125 L 0 -0.3125 L -0.03125 -1.3125 L 0 -2.4375 L -0.296875 -2.4375 C -0.296875 -1.9375 -0.546875 -1.703125 -0.796875 -1.703125 C -0.828125 -1.703125 -0.921875 -1.703125 -0.953125 -1.71875 L -2.234375 -2.171875 L -2.234375 -4.578125 L -0.734375 -5.09375 C -0.6875 -5.109375 -0.640625 -5.125 -0.59375 -5.125 C -0.296875 -5.125 -0.296875 -4.578125 -0.296875 -4.3125 L 0 -4.3125 C -0.03125 -4.671875 -0.03125 -5.359375 -0.03125 -5.71875 Z M -2.53125 -4.46875 L -2.53125 -2.28125 L -5.703125 -3.375 Z "/>
</symbol>
<symbol overflow="visible" id="glyph2-2">
<path style="stroke:none;" d="M -1.78125 -6.359375 C -2.640625 -6.359375 -3.375 -5.5625 -3.484375 -4.46875 C -3.671875 -5.421875 -4.296875 -6.09375 -5.015625 -6.09375 C -5.875 -6.09375 -6.671875 -5.203125 -6.671875 -3.921875 L -6.671875 -0.359375 L -6.375 -0.359375 L -6.375 -0.59375 C -6.375 -1.34375 -6.265625 -1.359375 -5.90625 -1.359375 L -0.765625 -1.359375 C -0.40625 -1.359375 -0.296875 -1.34375 -0.296875 -0.59375 L -0.296875 -0.359375 L 0 -0.359375 L 0 -4.1875 C 0 -5.484375 -0.875 -6.359375 -1.78125 -6.359375 Z M -5.015625 -5.140625 C -4.390625 -5.140625 -3.578125 -4.671875 -3.578125 -3.578125 L -3.578125 -2.171875 L -5.984375 -2.171875 C -6.296875 -2.171875 -6.375 -2.1875 -6.375 -2.640625 L -6.375 -3.859375 C -6.375 -4.8125 -5.53125 -5.140625 -5.015625 -5.140625 Z M -1.796875 -5.375 C -1.109375 -5.375 -0.296875 -4.875 -0.296875 -3.875 L -0.296875 -2.640625 C -0.296875 -2.1875 -0.375 -2.171875 -0.6875 -2.171875 L -3.359375 -2.171875 L -3.359375 -4 C -3.359375 -4.96875 -2.453125 -5.375 -1.796875 -5.375 Z "/>
</symbol>
<symbol overflow="visible" id="glyph3-0">
<path style="stroke:none;" d=""/>
</symbol>
<symbol overflow="visible" id="glyph3-1">
<path style="stroke:none;" d="M 3.484375 -4.65625 C 3.4375 -4.65625 3.40625 -4.65625 3.171875 -4.421875 C 1.71875 -2.984375 -0.640625 -2.1875 -3.578125 -2.1875 C -6.359375 -2.1875 -8.75 -2.859375 -10.4375 -4.515625 C -10.578125 -4.65625 -10.59375 -4.65625 -10.640625 -4.65625 C -10.734375 -4.65625 -10.75 -4.59375 -10.75 -4.53125 C -10.75 -4.34375 -9.71875 -3.171875 -8.3125 -2.46875 C -6.875 -1.734375 -5.328125 -1.40625 -3.578125 -1.40625 C -2.296875 -1.40625 -0.59375 -1.609375 0.953125 -2.359375 C 2.671875 -3.203125 3.59375 -4.375 3.59375 -4.53125 C 3.59375 -4.59375 3.578125 -4.65625 3.484375 -4.65625 Z "/>
</symbol>
<symbol overflow="visible" id="glyph3-2">
<path style="stroke:none;" d="M -3.578125 -4.046875 C -4.65625 -4.046875 -6.4375 -3.90625 -8.109375 -3.09375 C -9.828125 -2.25 -10.75 -1.078125 -10.75 -0.921875 C -10.75 -0.859375 -10.734375 -0.78125 -10.640625 -0.78125 C -10.59375 -0.78125 -10.578125 -0.78125 -10.328125 -1.03125 C -8.875 -2.46875 -6.515625 -3.265625 -3.578125 -3.265625 C -0.796875 -3.265625 1.59375 -2.59375 3.28125 -0.9375 C 3.40625 -0.78125 3.4375 -0.78125 3.484375 -0.78125 C 3.578125 -0.78125 3.59375 -0.859375 3.59375 -0.921875 C 3.59375 -1.109375 2.5625 -2.28125 1.15625 -2.984375 C -0.296875 -3.71875 -1.84375 -4.046875 -3.578125 -4.046875 Z "/>
</symbol>
<symbol overflow="visible" id="glyph4-0">
<path style="stroke:none;" d=""/>
</symbol>
<symbol overflow="visible" id="glyph4-1">
<path style="stroke:none;" d="M 2.890625 -5.765625 L 4.203125 -5.765625 C 4.46875 -5.765625 4.625 -5.765625 4.625 -6.03125 C 4.625 -6.1875 4.53125 -6.1875 4.25 -6.1875 L 2.984375 -6.1875 L 3.515625 -8.28125 C 3.578125 -8.484375 3.578125 -8.5 3.578125 -8.609375 C 3.578125 -8.828125 3.390625 -8.96875 3.203125 -8.96875 C 3.078125 -8.96875 2.75 -8.921875 2.640625 -8.46875 L 2.078125 -6.1875 L 0.734375 -6.1875 C 0.4375 -6.1875 0.3125 -6.1875 0.3125 -5.90625 C 0.3125 -5.765625 0.421875 -5.765625 0.6875 -5.765625 L 1.96875 -5.765625 L 1.015625 -1.984375 C 0.90625 -1.484375 0.859375 -1.328125 0.859375 -1.140625 C 0.859375 -0.46875 1.328125 0.140625 2.140625 0.140625 C 3.578125 0.140625 4.359375 -1.953125 4.359375 -2.046875 C 4.359375 -2.140625 4.296875 -2.1875 4.21875 -2.1875 C 4.1875 -2.1875 4.125 -2.1875 4.109375 -2.125 C 4.09375 -2.109375 4.078125 -2.09375 3.96875 -1.859375 C 3.671875 -1.140625 3.015625 -0.140625 2.1875 -0.140625 C 1.75 -0.140625 1.71875 -0.5 1.71875 -0.8125 C 1.71875 -0.828125 1.71875 -1.109375 1.765625 -1.28125 Z "/>
</symbol>
</g>
<clipPath id="clip1">
  <path d="M 56.046875 7.613281 L 416.886719 7.613281 L 416.886719 123.257812 L 56.046875 123.257812 Z "/>
</clipPath>
<clipPath id="clip2">
  <path d="M 56.046875 137.089844 L 416.886719 137.089844 L 416.886719 252.734375 L 56.046875 252.734375 Z "/>
</clipPath>
</defs>
<g id="surface1">
<rect x="0" y="0" width="432" height="288" style="fill:rgb(100%,100%,100%);fill-opacity:1;stroke:none;"/>
<path style=" stroke:none;fill-rule:nonzero;fill:rgb(100%,100%,100%);fill-opacity:1;" d="M 56.046875 123.257812 L 416.886719 123.257812 L 416.886719 7.613281 L 56.046875 7.613281 Z "/>
<g clip-path="url(#clip1)" clip-rule="nonzero">
<path style="fill:none;stroke-width:1.00002;stroke-linecap:square;stroke-linejoin:round;stroke:rgb(0%,0%,100%);stroke-opacity:1;stroke-miterlimit:10;" d="M 56.046875 280.371094 L 59.65625 276.53125 L 63.265625 273.191406 L 66.875 270.539062 L 70.484375 268.191406 L 74.089844 265.511719 L 77.699219 263.273438 L 81.308594 261.082031 L 84.914062 258.886719 L 88.523438 256.796875 L 92.132812 254.710938 L 95.742188 252.617188 L 99.347656 250.378906 L 102.957031 248.441406 L 110.175781 244.621094 L 113.78125 242.625 L 117.390625 240.421875 L 121 238.3125 L 124.609375 236.324219 L 128.214844 234.4375 L 131.824219 232.460938 L 135.433594 230.398438 L 139.042969 228.25 L 142.648438 226.242188 L 146.257812 224.355469 L 149.867188 222.535156 L 153.472656 220.714844 L 157.082031 219.148438 L 160.691406 217.375 L 164.300781 215.480469 L 167.910156 213.921875 L 171.515625 212.285156 L 175.125 210.421875 L 178.734375 208.746094 L 182.339844 207.269531 L 185.949219 205.683594 L 189.558594 204.1875 L 193.167969 202.753906 L 196.773438 201.441406 L 200.382812 200.164062 L 203.992188 198.804688 L 207.601562 197.367188 L 211.207031 196.078125 L 214.816406 194.625 L 218.425781 193.503906 L 222.035156 192.4375 L 225.640625 191.535156 L 229.25 190.542969 L 232.859375 189.507812 L 236.46875 188.574219 L 240.074219 187.511719 L 243.683594 186.601562 L 247.292969 185.390625 L 250.898438 184.546875 L 254.507812 183.5625 L 258.117188 182.835938 L 261.726562 181.746094 L 265.335938 181.109375 L 268.941406 180.242188 L 272.550781 179.832031 L 276.160156 179.105469 L 279.765625 178.347656 L 283.375 178.113281 L 286.984375 177.472656 L 290.59375 176.996094 L 294.199219 176.328125 L 297.808594 175.777344 L 301.417969 175.09375 L 305.027344 174.433594 L 308.632812 173.796875 L 312.242188 173.480469 L 315.851562 173.179688 L 319.460938 172.78125 L 323.066406 172.761719 L 326.675781 172.296875 L 330.285156 172.3125 L 333.894531 172.019531 L 337.5 171.871094 L 341.109375 171.488281 L 344.71875 170.933594 L 348.324219 170.601562 L 351.933594 170.226562 L 355.542969 169.816406 L 359.152344 169.449219 L 362.761719 168.949219 L 366.367188 168.808594 L 369.976562 168.464844 L 373.585938 168.164062 L 377.191406 167.636719 L 380.800781 167.394531 L 384.410156 167.1875 L 388.019531 166.8125 L 391.628906 166.6875 L 395.234375 166.539062 L 398.84375 166.226562 L 402.453125 166.09375 L 406.058594 165.820312 L 409.667969 165.542969 L 413.277344 165.226562 L 416.886719 164.925781 " transform="matrix(1,0,0,-1,0,288)"/>
</g>
<path style="fill:none;stroke-width:1.00002;stroke-linecap:square;stroke-linejoin:miter;stroke:rgb(0%,0%,0%);stroke-opacity:1;stroke-miterlimit:10;" d="M 56.046875 280.386719 L 416.886719 280.386719 " transform="matrix(1,0,0,-1,0,288)"/>
<path style="fill:none;stroke-width:1.00002;stroke-linecap:square;stroke-linejoin:miter;stroke:rgb(0%,0%,0%);stroke-opacity:1;stroke-miterlimit:10;" d="M 416.886719 164.742188 L 416.886719 280.386719 " transform="matrix(1,0,0,-1,0,288)"/>
<path style="fill:none;stroke-width:1.00002;stroke-linecap:square;stroke-linejoin:miter;stroke:rgb(0%,0%,0%);stroke-opacity:1;stroke-miterlimit:10;" d="M 56.046875 164.742188 L 416.886719 164.742188 " transform="matrix(1,0,0,-1,0,288)"/>
<path style="fill:none;stroke-width:1.00002;stroke-linecap:square;stroke-linejoin:miter;stroke:rgb(0%,0%,0%);stroke-opacity:1;stroke-miterlimit:10;" d="M 56.046875 164.742188 L 56.046875 280.386719 " transform="matrix(1,0,0,-1,0,288)"/>
<path style="fill:none;stroke-width:0.5;stroke-linecap:butt;stroke-linejoin:round;stroke:rgb(0%,0%,0%);stroke-opacity:1;stroke-miterlimit:10;" d="M -0.001695 0.0000875 L -0.001695 4.000088 " transform="matrix(1,0,0,-1,56.04857,123.2579)"/>
<path style="fill:none;stroke-width:0.5;stroke-linecap:butt;stroke-linejoin:round;stroke:rgb(0%,0%,0%);stroke-opacity:1;stroke-miterlimit:10;" d="M -0.001695 -0.00116125 L -0.001695 -4.001161 " transform="matrix(1,0,0,-1,56.04857,7.61212)"/>
<path style="fill:none;stroke-width:0.5;stroke-linecap:butt;stroke-linejoin:round;stroke:rgb(0%,0%,0%);stroke-opacity:1;stroke-miterlimit:10;" d="M -0.00164625 0.0000875 L -0.00164625 4.000088 " transform="matrix(1,0,0,-1,128.21649,123.2579)"/>
<path style="fill:none;stroke-width:0.5;stroke-linecap:butt;stroke-linejoin:round;stroke:rgb(0%,0%,0%);stroke-opacity:1;stroke-miterlimit:10;" d="M -0.00164625 -0.00116125 L -0.00164625 -4.001161 " transform="matrix(1,0,0,-1,128.21649,7.61212)"/>
<path style="fill:none;stroke-width:0.5;stroke-linecap:butt;stroke-linejoin:round;stroke:rgb(0%,0%,0%);stroke-opacity:1;stroke-miterlimit:10;" d="M -0.0004875 0.0000875 L -0.0004875 4.000088 " transform="matrix(1,0,0,-1,200.3833,123.2579)"/>
<path style="fill:none;stroke-width:0.5;stroke-linecap:butt;stroke-linejoin:round;stroke:rgb(0%,0%,0%);stroke-opacity:1;stroke-miterlimit:10;" d="M -0.0004875 -0.00116125 L -0.0004875 -4.001161 " transform="matrix(1,0,0,-1,200.3833,7.61212)"/>
<path style="fill:none;stroke-width:0.5;stroke-linecap:butt;stroke-linejoin:round;stroke:rgb(0%,0%,0%);stroke-opacity:1;stroke-miterlimit:10;" d="M -0.00043875 0.0000875 L -0.00043875 4.000088 " transform="matrix(1,0,0,-1,272.55122,123.2579)"/>
<path style="fill:none;stroke-width:0.5;stroke-linecap:butt;stroke-linejoin:round;stroke:rgb(0%,0%,0%);stroke-opacity:1;stroke-miterlimit:10;" d="M -0.00043875 -0.00116125 L -0.00043875 -4.001161 " transform="matrix(1,0,0,-1,272.55122,7.61212)"/>
<path style="fill:none;stroke-width:0.5;stroke-linecap:butt;stroke-linejoin:round;stroke:rgb(0%,0%,0%);stroke-opacity:1;stroke-miterlimit:10;" d="M 0.0007 0.0000875 L 0.0007 4.000088 " transform="matrix(1,0,0,-1,344.71805,123.2579)"/>
<path style="fill:none;stroke-width:0.5;stroke-linecap:butt;stroke-linejoin:round;stroke:rgb(0%,0%,0%);stroke-opacity:1;stroke-miterlimit:10;" d="M 0.0007 -0.00116125 L 0.0007 -4.001161 " transform="matrix(1,0,0,-1,344.71805,7.61212)"/>
<path style="fill:none;stroke-width:0.5;stroke-linecap:butt;stroke-linejoin:round;stroke:rgb(0%,0%,0%);stroke-opacity:1;stroke-miterlimit:10;" d="M 0.00184875 0.0000875 L 0.00184875 4.000088 " transform="matrix(1,0,0,-1,416.88487,123.2579)"/>
<path style="fill:none;stroke-width:0.5;stroke-linecap:butt;stroke-linejoin:round;stroke:rgb(0%,0%,0%);stroke-opacity:1;stroke-miterlimit:10;" d="M 0.00184875 -0.00116125 L 0.00184875 -4.001161 " transform="matrix(1,0,0,-1,416.88487,7.61212)"/>
<path style="fill:none;stroke-width:0.5;stroke-linecap:butt;stroke-linejoin:round;stroke:rgb(0%,0%,0%);stroke-opacity:1;stroke-miterlimit:10;" d="M -0.00070625 0.0000875 L -0.00070625 2.000088 " transform="matrix(1,0,0,-1,74.09055,123.2579)"/>
<path style="fill:none;stroke-width:0.5;stroke-linecap:butt;stroke-linejoin:round;stroke:rgb(0%,0%,0%);stroke-opacity:1;stroke-miterlimit:10;" d="M -0.00070625 -0.00116125 L -0.00070625 -2.001161 " transform="matrix(1,0,0,-1,74.09055,7.61212)"/>
<path style="fill:none;stroke-width:0.5;stroke-linecap:butt;stroke-linejoin:round;stroke:rgb(0%,0%,0%);stroke-opacity:1;stroke-miterlimit:10;" d="M 0.0002925 0.0000875 L 0.0002925 2.000088 " transform="matrix(1,0,0,-1,92.13252,123.2579)"/>
<path style="fill:none;stroke-width:0.5;stroke-linecap:butt;stroke-linejoin:round;stroke:rgb(0%,0%,0%);stroke-opacity:1;stroke-miterlimit:10;" d="M 0.0002925 -0.00116125 L 0.0002925 -2.001161 " transform="matrix(1,0,0,-1,92.13252,7.61212)"/>
<path style="fill:none;stroke-width:0.5;stroke-linecap:butt;stroke-linejoin:round;stroke:rgb(0%,0%,0%);stroke-opacity:1;stroke-miterlimit:10;" d="M 0.00128125 0.0000875 L 0.00128125 2.000088 " transform="matrix(1,0,0,-1,110.1745,123.2579)"/>
<path style="fill:none;stroke-width:0.5;stroke-linecap:butt;stroke-linejoin:round;stroke:rgb(0%,0%,0%);stroke-opacity:1;stroke-miterlimit:10;" d="M 0.00128125 -0.00116125 L 0.00128125 -2.001161 " transform="matrix(1,0,0,-1,110.1745,7.61212)"/>
<path style="fill:none;stroke-width:0.5;stroke-linecap:butt;stroke-linejoin:round;stroke:rgb(0%,0%,0%);stroke-opacity:1;stroke-miterlimit:10;" d="M 0.0004625 0.0000875 L 0.0004625 2.000088 " transform="matrix(1,0,0,-1,146.25735,123.2579)"/>
<path style="fill:none;stroke-width:0.5;stroke-linecap:butt;stroke-linejoin:round;stroke:rgb(0%,0%,0%);stroke-opacity:1;stroke-miterlimit:10;" d="M 0.0004625 -0.00116125 L 0.0004625 -2.001161 " transform="matrix(1,0,0,-1,146.25735,7.61212)"/>
<path style="fill:none;stroke-width:0.5;stroke-linecap:butt;stroke-linejoin:round;stroke:rgb(0%,0%,0%);stroke-opacity:1;stroke-miterlimit:10;" d="M 0.00143125 0.0000875 L 0.00143125 2.000088 " transform="matrix(1,0,0,-1,164.29935,123.2579)"/>
<path style="fill:none;stroke-width:0.5;stroke-linecap:butt;stroke-linejoin:round;stroke:rgb(0%,0%,0%);stroke-opacity:1;stroke-miterlimit:10;" d="M 0.00143125 -0.00116125 L 0.00143125 -2.001161 " transform="matrix(1,0,0,-1,164.29935,7.61212)"/>
<path style="fill:none;stroke-width:0.5;stroke-linecap:butt;stroke-linejoin:round;stroke:rgb(0%,0%,0%);stroke-opacity:1;stroke-miterlimit:10;" d="M -0.00147625 0.0000875 L -0.00147625 2.000088 " transform="matrix(1,0,0,-1,182.34132,123.2579)"/>
<path style="fill:none;stroke-width:0.5;stroke-linecap:butt;stroke-linejoin:round;stroke:rgb(0%,0%,0%);stroke-opacity:1;stroke-miterlimit:10;" d="M -0.00147625 -0.00116125 L -0.00147625 -2.001161 " transform="matrix(1,0,0,-1,182.34132,7.61212)"/>
<path style="fill:none;stroke-width:0.5;stroke-linecap:butt;stroke-linejoin:round;stroke:rgb(0%,0%,0%);stroke-opacity:1;stroke-miterlimit:10;" d="M 0.00048125 0.0000875 L 0.00048125 2.000088 " transform="matrix(1,0,0,-1,218.4253,123.2579)"/>
<path style="fill:none;stroke-width:0.5;stroke-linecap:butt;stroke-linejoin:round;stroke:rgb(0%,0%,0%);stroke-opacity:1;stroke-miterlimit:10;" d="M 0.00048125 -0.00116125 L 0.00048125 -2.001161 " transform="matrix(1,0,0,-1,218.4253,7.61212)"/>
<path style="fill:none;stroke-width:0.5;stroke-linecap:butt;stroke-linejoin:round;stroke:rgb(0%,0%,0%);stroke-opacity:1;stroke-miterlimit:10;" d="M 0.00148 0.0000875 L 0.00148 2.000088 " transform="matrix(1,0,0,-1,236.46727,123.2579)"/>
<path style="fill:none;stroke-width:0.5;stroke-linecap:butt;stroke-linejoin:round;stroke:rgb(0%,0%,0%);stroke-opacity:1;stroke-miterlimit:10;" d="M 0.00148 -0.00116125 L 0.00148 -2.001161 " transform="matrix(1,0,0,-1,236.46727,7.61212)"/>
<path style="fill:none;stroke-width:0.5;stroke-linecap:butt;stroke-linejoin:round;stroke:rgb(0%,0%,0%);stroke-opacity:1;stroke-miterlimit:10;" d="M -0.0014375 0.0000875 L -0.0014375 2.000088 " transform="matrix(1,0,0,-1,254.50925,123.2579)"/>
<path style="fill:none;stroke-width:0.5;stroke-linecap:butt;stroke-linejoin:round;stroke:rgb(0%,0%,0%);stroke-opacity:1;stroke-miterlimit:10;" d="M -0.0014375 -0.00116125 L -0.0014375 -2.001161 " transform="matrix(1,0,0,-1,254.50925,7.61212)"/>
<path style="fill:none;stroke-width:0.5;stroke-linecap:butt;stroke-linejoin:round;stroke:rgb(0%,0%,0%);stroke-opacity:1;stroke-miterlimit:10;" d="M 0.00163 0.0000875 L 0.00163 2.000088 " transform="matrix(1,0,0,-1,290.59212,123.2579)"/>
<path style="fill:none;stroke-width:0.5;stroke-linecap:butt;stroke-linejoin:round;stroke:rgb(0%,0%,0%);stroke-opacity:1;stroke-miterlimit:10;" d="M 0.00163 -0.00116125 L 0.00163 -2.001161 " transform="matrix(1,0,0,-1,290.59212,7.61212)"/>
<path style="fill:none;stroke-width:0.5;stroke-linecap:butt;stroke-linejoin:round;stroke:rgb(0%,0%,0%);stroke-opacity:1;stroke-miterlimit:10;" d="M -0.0012675 0.0000875 L -0.0012675 2.000088 " transform="matrix(1,0,0,-1,308.63408,123.2579)"/>
<path style="fill:none;stroke-width:0.5;stroke-linecap:butt;stroke-linejoin:round;stroke:rgb(0%,0%,0%);stroke-opacity:1;stroke-miterlimit:10;" d="M -0.0012675 -0.00116125 L -0.0012675 -2.001161 " transform="matrix(1,0,0,-1,308.63408,7.61212)"/>
<path style="fill:none;stroke-width:0.5;stroke-linecap:butt;stroke-linejoin:round;stroke:rgb(0%,0%,0%);stroke-opacity:1;stroke-miterlimit:10;" d="M -0.00028875 0.0000875 L -0.00028875 2.000088 " transform="matrix(1,0,0,-1,326.67607,123.2579)"/>
<path style="fill:none;stroke-width:0.5;stroke-linecap:butt;stroke-linejoin:round;stroke:rgb(0%,0%,0%);stroke-opacity:1;stroke-miterlimit:10;" d="M -0.00028875 -0.00116125 L -0.00028875 -2.001161 " transform="matrix(1,0,0,-1,326.67607,7.61212)"/>
<path style="fill:none;stroke-width:0.5;stroke-linecap:butt;stroke-linejoin:round;stroke:rgb(0%,0%,0%);stroke-opacity:1;stroke-miterlimit:10;" d="M 0.00168875 0.0000875 L 0.00168875 2.000088 " transform="matrix(1,0,0,-1,362.76003,123.2579)"/>
<path style="fill:none;stroke-width:0.5;stroke-linecap:butt;stroke-linejoin:round;stroke:rgb(0%,0%,0%);stroke-opacity:1;stroke-miterlimit:10;" d="M 0.00168875 -0.00116125 L 0.00168875 -2.001161 " transform="matrix(1,0,0,-1,362.76003,7.61212)"/>
<path style="fill:none;stroke-width:0.5;stroke-linecap:butt;stroke-linejoin:round;stroke:rgb(0%,0%,0%);stroke-opacity:1;stroke-miterlimit:10;" d="M -0.00123875 0.0000875 L -0.00123875 2.000088 " transform="matrix(1,0,0,-1,380.80202,123.2579)"/>
<path style="fill:none;stroke-width:0.5;stroke-linecap:butt;stroke-linejoin:round;stroke:rgb(0%,0%,0%);stroke-opacity:1;stroke-miterlimit:10;" d="M -0.00123875 -0.00116125 L -0.00123875 -2.001161 " transform="matrix(1,0,0,-1,380.80202,7.61212)"/>
<path style="fill:none;stroke-width:0.5;stroke-linecap:butt;stroke-linejoin:round;stroke:rgb(0%,0%,0%);stroke-opacity:1;stroke-miterlimit:10;" d="M -0.00025 0.0000875 L -0.00025 2.000088 " transform="matrix(1,0,0,-1,398.844,123.2579)"/>
<path style="fill:none;stroke-width:0.5;stroke-linecap:butt;stroke-linejoin:round;stroke:rgb(0%,0%,0%);stroke-opacity:1;stroke-miterlimit:10;" d="M -0.00025 -0.00116125 L -0.00025 -2.001161 " transform="matrix(1,0,0,-1,398.844,7.61212)"/>
<path style="fill:none;stroke-width:0.5;stroke-linecap:butt;stroke-linejoin:round;stroke:rgb(0%,0%,0%);stroke-opacity:1;stroke-miterlimit:10;" d="M -0.001695 0.0000875 L 3.998305 0.0000875 " transform="matrix(1,0,0,-1,56.04857,123.2579)"/>
<path style="fill:none;stroke-width:0.5;stroke-linecap:butt;stroke-linejoin:round;stroke:rgb(0%,0%,0%);stroke-opacity:1;stroke-miterlimit:10;" d="M 0.00184875 0.0000875 L -4.002058 0.0000875 " transform="matrix(1,0,0,-1,416.88487,123.2579)"/>
<g style="fill:rgb(0%,0%,0%);fill-opacity:1;">
  <use xlink:href="#glyph0-1" x="20.92" y="127.75"/>
  <use xlink:href="#glyph0-2" x="27.75452" y="127.75"/>
  <use xlink:href="#glyph0-3" x="31.548376" y="127.75"/>
  <use xlink:href="#glyph0-4" x="38.382896" y="127.75"/>
  <use xlink:href="#glyph0-5" x="45.217416" y="127.75"/>
</g>
<path style="fill:none;stroke-width:0.5;stroke-linecap:butt;stroke-linejoin:round;stroke:rgb(0%,0%,0%);stroke-opacity:1;stroke-miterlimit:10;" d="M -0.001695 -0.00073125 L 3.998305 -0.00073125 " transform="matrix(1,0,0,-1,56.04857,106.73755)"/>
<path style="fill:none;stroke-width:0.5;stroke-linecap:butt;stroke-linejoin:round;stroke:rgb(0%,0%,0%);stroke-opacity:1;stroke-miterlimit:10;" d="M 0.00184875 -0.00073125 L -4.002058 -0.00073125 " transform="matrix(1,0,0,-1,416.88487,106.73755)"/>
<g style="fill:rgb(0%,0%,0%);fill-opacity:1;">
  <use xlink:href="#glyph0-1" x="20.92" y="111.23"/>
  <use xlink:href="#glyph0-2" x="27.75452" y="111.23"/>
  <use xlink:href="#glyph0-3" x="31.548376" y="111.23"/>
  <use xlink:href="#glyph0-4" x="38.382896" y="111.23"/>
  <use xlink:href="#glyph0-4" x="45.217416" y="111.23"/>
</g>
<path style="fill:none;stroke-width:0.5;stroke-linecap:butt;stroke-linejoin:round;stroke:rgb(0%,0%,0%);stroke-opacity:1;stroke-miterlimit:10;" d="M -0.001695 0.00125625 L 3.998305 0.00125625 " transform="matrix(1,0,0,-1,56.04857,90.2161)"/>
<path style="fill:none;stroke-width:0.5;stroke-linecap:butt;stroke-linejoin:round;stroke:rgb(0%,0%,0%);stroke-opacity:1;stroke-miterlimit:10;" d="M 0.00184875 0.00125625 L -4.002058 0.00125625 " transform="matrix(1,0,0,-1,416.88487,90.2161)"/>
<g style="fill:rgb(0%,0%,0%);fill-opacity:1;">
  <use xlink:href="#glyph0-1" x="20.92" y="94.71"/>
  <use xlink:href="#glyph0-2" x="27.75452" y="94.71"/>
  <use xlink:href="#glyph0-3" x="31.548376" y="94.71"/>
  <use xlink:href="#glyph0-3" x="38.382896" y="94.71"/>
  <use xlink:href="#glyph0-1" x="45.217416" y="94.71"/>
</g>
<path style="fill:none;stroke-width:0.5;stroke-linecap:butt;stroke-linejoin:round;stroke:rgb(0%,0%,0%);stroke-opacity:1;stroke-miterlimit:10;" d="M -0.001695 0.0004275 L 3.998305 0.0004275 " transform="matrix(1,0,0,-1,56.04857,73.69574)"/>
<path style="fill:none;stroke-width:0.5;stroke-linecap:butt;stroke-linejoin:round;stroke:rgb(0%,0%,0%);stroke-opacity:1;stroke-miterlimit:10;" d="M 0.00184875 0.0004275 L -4.002058 0.0004275 " transform="matrix(1,0,0,-1,416.88487,73.69574)"/>
<g style="fill:rgb(0%,0%,0%);fill-opacity:1;">
  <use xlink:href="#glyph0-1" x="20.92" y="78.19"/>
  <use xlink:href="#glyph0-2" x="27.75452" y="78.19"/>
  <use xlink:href="#glyph0-3" x="31.548376" y="78.19"/>
  <use xlink:href="#glyph0-3" x="38.382896" y="78.19"/>
  <use xlink:href="#glyph0-6" x="45.217416" y="78.19"/>
</g>
<path style="fill:none;stroke-width:0.5;stroke-linecap:butt;stroke-linejoin:round;stroke:rgb(0%,0%,0%);stroke-opacity:1;stroke-miterlimit:10;" d="M -0.001695 -0.00151125 L 3.998305 -0.00151125 " transform="matrix(1,0,0,-1,56.04857,57.17427)"/>
<path style="fill:none;stroke-width:0.5;stroke-linecap:butt;stroke-linejoin:round;stroke:rgb(0%,0%,0%);stroke-opacity:1;stroke-miterlimit:10;" d="M 0.00184875 -0.00151125 L -4.002058 -0.00151125 " transform="matrix(1,0,0,-1,416.88487,57.17427)"/>
<g style="fill:rgb(0%,0%,0%);fill-opacity:1;">
  <use xlink:href="#glyph0-1" x="20.92" y="61.74"/>
  <use xlink:href="#glyph0-2" x="27.75452" y="61.74"/>
  <use xlink:href="#glyph0-3" x="31.548376" y="61.74"/>
  <use xlink:href="#glyph0-3" x="38.382896" y="61.74"/>
  <use xlink:href="#glyph0-7" x="45.217416" y="61.74"/>
</g>
<path style="fill:none;stroke-width:0.5;stroke-linecap:butt;stroke-linejoin:round;stroke:rgb(0%,0%,0%);stroke-opacity:1;stroke-miterlimit:10;" d="M -0.001695 0.00158625 L 3.998305 0.00158625 " transform="matrix(1,0,0,-1,56.04857,40.65393)"/>
<path style="fill:none;stroke-width:0.5;stroke-linecap:butt;stroke-linejoin:round;stroke:rgb(0%,0%,0%);stroke-opacity:1;stroke-miterlimit:10;" d="M 0.00184875 0.00158625 L -4.002058 0.00158625 " transform="matrix(1,0,0,-1,416.88487,40.65393)"/>
<g style="fill:rgb(0%,0%,0%);fill-opacity:1;">
  <use xlink:href="#glyph0-1" x="20.92" y="45.15"/>
  <use xlink:href="#glyph0-2" x="27.75452" y="45.15"/>
  <use xlink:href="#glyph0-3" x="31.548376" y="45.15"/>
  <use xlink:href="#glyph0-3" x="38.382896" y="45.15"/>
  <use xlink:href="#glyph0-5" x="45.217416" y="45.15"/>
</g>
<path style="fill:none;stroke-width:0.5;stroke-linecap:butt;stroke-linejoin:round;stroke:rgb(0%,0%,0%);stroke-opacity:1;stroke-miterlimit:10;" d="M -0.001695 0.0007775 L 3.998305 0.0007775 " transform="matrix(1,0,0,-1,56.04857,24.13359)"/>
<path style="fill:none;stroke-width:0.5;stroke-linecap:butt;stroke-linejoin:round;stroke:rgb(0%,0%,0%);stroke-opacity:1;stroke-miterlimit:10;" d="M 0.00184875 0.0007775 L -4.002058 0.0007775 " transform="matrix(1,0,0,-1,416.88487,24.13359)"/>
<g style="fill:rgb(0%,0%,0%);fill-opacity:1;">
  <use xlink:href="#glyph0-1" x="20.92" y="28.63"/>
  <use xlink:href="#glyph0-2" x="27.75452" y="28.63"/>
  <use xlink:href="#glyph0-3" x="31.548376" y="28.63"/>
  <use xlink:href="#glyph0-3" x="38.382896" y="28.63"/>
  <use xlink:href="#glyph0-4" x="45.217416" y="28.63"/>
</g>
<path style="fill:none;stroke-width:0.5;stroke-linecap:butt;stroke-linejoin:round;stroke:rgb(0%,0%,0%);stroke-opacity:1;stroke-miterlimit:10;" d="M -0.001695 -0.00116125 L 3.998305 -0.00116125 " transform="matrix(1,0,0,-1,56.04857,7.61212)"/>
<path style="fill:none;stroke-width:0.5;stroke-linecap:butt;stroke-linejoin:round;stroke:rgb(0%,0%,0%);stroke-opacity:1;stroke-miterlimit:10;" d="M 0.00184875 -0.00116125 L -4.002058 -0.00116125 " transform="matrix(1,0,0,-1,416.88487,7.61212)"/>
<g style="fill:rgb(0%,0%,0%);fill-opacity:1;">
  <use xlink:href="#glyph0-8" x="20.92" y="12.11"/>
  <use xlink:href="#glyph0-2" x="27.75452" y="12.11"/>
  <use xlink:href="#glyph0-1" x="31.548376" y="12.11"/>
  <use xlink:href="#glyph0-1" x="38.382896" y="12.11"/>
  <use xlink:href="#glyph0-1" x="45.217416" y="12.11"/>
</g>
<path style="fill:none;stroke-width:0.5;stroke-linecap:butt;stroke-linejoin:round;stroke:rgb(0%,0%,0%);stroke-opacity:1;stroke-miterlimit:10;" d="M -0.001695 -0.00082625 L 1.998305 -0.00082625 " transform="matrix(1,0,0,-1,56.04857,119.12808)"/>
<path style="fill:none;stroke-width:0.5;stroke-linecap:butt;stroke-linejoin:round;stroke:rgb(0%,0%,0%);stroke-opacity:1;stroke-miterlimit:10;" d="M 0.00184875 -0.00082625 L -1.998151 -0.00082625 " transform="matrix(1,0,0,-1,416.88487,119.12808)"/>
<path style="fill:none;stroke-width:0.5;stroke-linecap:butt;stroke-linejoin:round;stroke:rgb(0%,0%,0%);stroke-opacity:1;stroke-miterlimit:10;" d="M -0.001695 0.00108625 L 1.998305 0.00108625 " transform="matrix(1,0,0,-1,56.04857,114.99718)"/>
<path style="fill:none;stroke-width:0.5;stroke-linecap:butt;stroke-linejoin:round;stroke:rgb(0%,0%,0%);stroke-opacity:1;stroke-miterlimit:10;" d="M 0.00184875 0.00108625 L -1.998151 0.00108625 " transform="matrix(1,0,0,-1,416.88487,114.99718)"/>
<path style="fill:none;stroke-width:0.5;stroke-linecap:butt;stroke-linejoin:round;stroke:rgb(0%,0%,0%);stroke-opacity:1;stroke-miterlimit:10;" d="M -0.001695 0.0001725 L 1.998305 0.0001725 " transform="matrix(1,0,0,-1,56.04857,110.86736)"/>
<path style="fill:none;stroke-width:0.5;stroke-linecap:butt;stroke-linejoin:round;stroke:rgb(0%,0%,0%);stroke-opacity:1;stroke-miterlimit:10;" d="M 0.00184875 0.0001725 L -1.998151 0.0001725 " transform="matrix(1,0,0,-1,416.88487,110.86736)"/>
<path style="fill:none;stroke-width:0.5;stroke-linecap:butt;stroke-linejoin:round;stroke:rgb(0%,0%,0%);stroke-opacity:1;stroke-miterlimit:10;" d="M -0.001695 0.00117125 L 1.998305 0.00117125 " transform="matrix(1,0,0,-1,56.04857,102.60664)"/>
<path style="fill:none;stroke-width:0.5;stroke-linecap:butt;stroke-linejoin:round;stroke:rgb(0%,0%,0%);stroke-opacity:1;stroke-miterlimit:10;" d="M 0.00184875 0.00117125 L -1.998151 0.00117125 " transform="matrix(1,0,0,-1,416.88487,102.60664)"/>
<path style="fill:none;stroke-width:0.5;stroke-linecap:butt;stroke-linejoin:round;stroke:rgb(0%,0%,0%);stroke-opacity:1;stroke-miterlimit:10;" d="M -0.001695 0.0002575 L 1.998305 0.0002575 " transform="matrix(1,0,0,-1,56.04857,98.47682)"/>
<path style="fill:none;stroke-width:0.5;stroke-linecap:butt;stroke-linejoin:round;stroke:rgb(0%,0%,0%);stroke-opacity:1;stroke-miterlimit:10;" d="M 0.00184875 0.0002575 L -1.998151 0.0002575 " transform="matrix(1,0,0,-1,416.88487,98.47682)"/>
<path style="fill:none;stroke-width:0.5;stroke-linecap:butt;stroke-linejoin:round;stroke:rgb(0%,0%,0%);stroke-opacity:1;stroke-miterlimit:10;" d="M -0.001695 -0.00065625 L 1.998305 -0.00065625 " transform="matrix(1,0,0,-1,56.04857,94.347)"/>
<path style="fill:none;stroke-width:0.5;stroke-linecap:butt;stroke-linejoin:round;stroke:rgb(0%,0%,0%);stroke-opacity:1;stroke-miterlimit:10;" d="M 0.00184875 -0.00065625 L -1.998151 -0.00065625 " transform="matrix(1,0,0,-1,416.88487,94.347)"/>
<path style="fill:none;stroke-width:0.5;stroke-linecap:butt;stroke-linejoin:round;stroke:rgb(0%,0%,0%);stroke-opacity:1;stroke-miterlimit:10;" d="M -0.001695 0.0003525 L 1.998305 0.0003525 " transform="matrix(1,0,0,-1,56.04857,86.08629)"/>
<path style="fill:none;stroke-width:0.5;stroke-linecap:butt;stroke-linejoin:round;stroke:rgb(0%,0%,0%);stroke-opacity:1;stroke-miterlimit:10;" d="M 0.00184875 0.0003525 L -1.998151 0.0003525 " transform="matrix(1,0,0,-1,416.88487,86.08629)"/>
<path style="fill:none;stroke-width:0.5;stroke-linecap:butt;stroke-linejoin:round;stroke:rgb(0%,0%,0%);stroke-opacity:1;stroke-miterlimit:10;" d="M -0.001695 -0.00056125 L 1.998305 -0.00056125 " transform="matrix(1,0,0,-1,56.04857,81.95647)"/>
<path style="fill:none;stroke-width:0.5;stroke-linecap:butt;stroke-linejoin:round;stroke:rgb(0%,0%,0%);stroke-opacity:1;stroke-miterlimit:10;" d="M 0.00184875 -0.00056125 L -1.998151 -0.00056125 " transform="matrix(1,0,0,-1,416.88487,81.95647)"/>
<path style="fill:none;stroke-width:0.5;stroke-linecap:butt;stroke-linejoin:round;stroke:rgb(0%,0%,0%);stroke-opacity:1;stroke-miterlimit:10;" d="M -0.001695 0.00134125 L 1.998305 0.00134125 " transform="matrix(1,0,0,-1,56.04857,77.82556)"/>
<path style="fill:none;stroke-width:0.5;stroke-linecap:butt;stroke-linejoin:round;stroke:rgb(0%,0%,0%);stroke-opacity:1;stroke-miterlimit:10;" d="M 0.00184875 0.00134125 L -1.998151 0.00134125 " transform="matrix(1,0,0,-1,416.88487,77.82556)"/>
<path style="fill:none;stroke-width:0.5;stroke-linecap:butt;stroke-linejoin:round;stroke:rgb(0%,0%,0%);stroke-opacity:1;stroke-miterlimit:10;" d="M -0.001695 -0.00157625 L 1.998305 -0.00157625 " transform="matrix(1,0,0,-1,56.04857,69.56483)"/>
<path style="fill:none;stroke-width:0.5;stroke-linecap:butt;stroke-linejoin:round;stroke:rgb(0%,0%,0%);stroke-opacity:1;stroke-miterlimit:10;" d="M 0.00184875 -0.00157625 L -1.998151 -0.00157625 " transform="matrix(1,0,0,-1,416.88487,69.56483)"/>
<path style="fill:none;stroke-width:0.5;stroke-linecap:butt;stroke-linejoin:round;stroke:rgb(0%,0%,0%);stroke-opacity:1;stroke-miterlimit:10;" d="M -0.001695 0.00141625 L 1.998305 0.00141625 " transform="matrix(1,0,0,-1,56.04857,65.43501)"/>
<path style="fill:none;stroke-width:0.5;stroke-linecap:butt;stroke-linejoin:round;stroke:rgb(0%,0%,0%);stroke-opacity:1;stroke-miterlimit:10;" d="M 0.00184875 0.00141625 L -1.998151 0.00141625 " transform="matrix(1,0,0,-1,416.88487,65.43501)"/>
<path style="fill:none;stroke-width:0.5;stroke-linecap:butt;stroke-linejoin:round;stroke:rgb(0%,0%,0%);stroke-opacity:1;stroke-miterlimit:10;" d="M -0.001695 0.0005125 L 1.998305 0.0005125 " transform="matrix(1,0,0,-1,56.04857,61.3052)"/>
<path style="fill:none;stroke-width:0.5;stroke-linecap:butt;stroke-linejoin:round;stroke:rgb(0%,0%,0%);stroke-opacity:1;stroke-miterlimit:10;" d="M 0.00184875 0.0005125 L -1.998151 0.0005125 " transform="matrix(1,0,0,-1,416.88487,61.3052)"/>
<path style="fill:none;stroke-width:0.5;stroke-linecap:butt;stroke-linejoin:round;stroke:rgb(0%,0%,0%);stroke-opacity:1;stroke-miterlimit:10;" d="M -0.001695 0.00151125 L 1.998305 0.00151125 " transform="matrix(1,0,0,-1,56.04857,53.04448)"/>
<path style="fill:none;stroke-width:0.5;stroke-linecap:butt;stroke-linejoin:round;stroke:rgb(0%,0%,0%);stroke-opacity:1;stroke-miterlimit:10;" d="M 0.00184875 0.00151125 L -1.998151 0.00151125 " transform="matrix(1,0,0,-1,416.88487,53.04448)"/>
<path style="fill:none;stroke-width:0.5;stroke-linecap:butt;stroke-linejoin:round;stroke:rgb(0%,0%,0%);stroke-opacity:1;stroke-miterlimit:10;" d="M -0.001695 0.0005975 L 1.998305 0.0005975 " transform="matrix(1,0,0,-1,56.04857,48.91466)"/>
<path style="fill:none;stroke-width:0.5;stroke-linecap:butt;stroke-linejoin:round;stroke:rgb(0%,0%,0%);stroke-opacity:1;stroke-miterlimit:10;" d="M 0.00184875 0.0005975 L -1.998151 0.0005975 " transform="matrix(1,0,0,-1,416.88487,48.91466)"/>
<path style="fill:none;stroke-width:0.5;stroke-linecap:butt;stroke-linejoin:round;stroke:rgb(0%,0%,0%);stroke-opacity:1;stroke-miterlimit:10;" d="M -0.001695 -0.00141625 L 1.998305 -0.00141625 " transform="matrix(1,0,0,-1,56.04857,44.78374)"/>
<path style="fill:none;stroke-width:0.5;stroke-linecap:butt;stroke-linejoin:round;stroke:rgb(0%,0%,0%);stroke-opacity:1;stroke-miterlimit:10;" d="M 0.00184875 -0.00141625 L -1.998151 -0.00141625 " transform="matrix(1,0,0,-1,416.88487,44.78374)"/>
<path style="fill:none;stroke-width:0.5;stroke-linecap:butt;stroke-linejoin:round;stroke:rgb(0%,0%,0%);stroke-opacity:1;stroke-miterlimit:10;" d="M -0.001695 0.0006825 L 1.998305 0.0006825 " transform="matrix(1,0,0,-1,56.04857,36.52412)"/>
<path style="fill:none;stroke-width:0.5;stroke-linecap:butt;stroke-linejoin:round;stroke:rgb(0%,0%,0%);stroke-opacity:1;stroke-miterlimit:10;" d="M 0.00184875 0.0006825 L -1.998151 0.0006825 " transform="matrix(1,0,0,-1,416.88487,36.52412)"/>
<path style="fill:none;stroke-width:0.5;stroke-linecap:butt;stroke-linejoin:round;stroke:rgb(0%,0%,0%);stroke-opacity:1;stroke-miterlimit:10;" d="M -0.001695 -0.00133125 L 1.998305 -0.00133125 " transform="matrix(1,0,0,-1,56.04857,32.3932)"/>
<path style="fill:none;stroke-width:0.5;stroke-linecap:butt;stroke-linejoin:round;stroke:rgb(0%,0%,0%);stroke-opacity:1;stroke-miterlimit:10;" d="M 0.00184875 -0.00133125 L -1.998151 -0.00133125 " transform="matrix(1,0,0,-1,416.88487,32.3932)"/>
<path style="fill:none;stroke-width:0.5;stroke-linecap:butt;stroke-linejoin:round;stroke:rgb(0%,0%,0%);stroke-opacity:1;stroke-miterlimit:10;" d="M -0.001695 0.00166125 L 1.998305 0.00166125 " transform="matrix(1,0,0,-1,56.04857,28.26338)"/>
<path style="fill:none;stroke-width:0.5;stroke-linecap:butt;stroke-linejoin:round;stroke:rgb(0%,0%,0%);stroke-opacity:1;stroke-miterlimit:10;" d="M 0.00184875 0.00166125 L -1.998151 0.00166125 " transform="matrix(1,0,0,-1,416.88487,28.26338)"/>
<path style="fill:none;stroke-width:0.5;stroke-linecap:butt;stroke-linejoin:round;stroke:rgb(0%,0%,0%);stroke-opacity:1;stroke-miterlimit:10;" d="M -0.001695 -0.00124625 L 1.998305 -0.00124625 " transform="matrix(1,0,0,-1,56.04857,20.00266)"/>
<path style="fill:none;stroke-width:0.5;stroke-linecap:butt;stroke-linejoin:round;stroke:rgb(0%,0%,0%);stroke-opacity:1;stroke-miterlimit:10;" d="M 0.00184875 -0.00124625 L -1.998151 -0.00124625 " transform="matrix(1,0,0,-1,416.88487,20.00266)"/>
<path style="fill:none;stroke-width:0.5;stroke-linecap:butt;stroke-linejoin:round;stroke:rgb(0%,0%,0%);stroke-opacity:1;stroke-miterlimit:10;" d="M -0.001695 0.00175625 L 1.998305 0.00175625 " transform="matrix(1,0,0,-1,56.04857,15.87285)"/>
<path style="fill:none;stroke-width:0.5;stroke-linecap:butt;stroke-linejoin:round;stroke:rgb(0%,0%,0%);stroke-opacity:1;stroke-miterlimit:10;" d="M 0.00184875 0.00175625 L -1.998151 0.00175625 " transform="matrix(1,0,0,-1,416.88487,15.87285)"/>
<path style="fill:none;stroke-width:0.5;stroke-linecap:butt;stroke-linejoin:round;stroke:rgb(0%,0%,0%);stroke-opacity:1;stroke-miterlimit:10;" d="M -0.001695 0.0008425 L 1.998305 0.0008425 " transform="matrix(1,0,0,-1,56.04857,11.74303)"/>
<path style="fill:none;stroke-width:0.5;stroke-linecap:butt;stroke-linejoin:round;stroke:rgb(0%,0%,0%);stroke-opacity:1;stroke-miterlimit:10;" d="M 0.00184875 0.0008425 L -1.998151 0.0008425 " transform="matrix(1,0,0,-1,416.88487,11.74303)"/>
<g style="fill:rgb(0%,0%,0%);fill-opacity:1;">
  <use xlink:href="#glyph1-1" x="12.21" y="81.75"/>
</g>
<g style="fill:rgb(0%,0%,0%);fill-opacity:1;">
  <use xlink:href="#glyph2-1" x="14.36" y="72.95"/>
</g>
<g style="fill:rgb(0%,0%,0%);fill-opacity:1;">
  <use xlink:href="#glyph3-1" x="12.21" y="65.13"/>
</g>
<g style="fill:rgb(0%,0%,0%);fill-opacity:1;">
  <use xlink:href="#glyph1-2" x="12.21" y="59.66"/>
</g>
<g style="fill:rgb(0%,0%,0%);fill-opacity:1;">
  <use xlink:href="#glyph3-2" x="12.21" y="54.59"/>
</g>
<path style=" stroke:none;fill-rule:nonzero;fill:rgb(100%,100%,100%);fill-opacity:1;" d="M 56.046875 252.734375 L 416.886719 252.734375 L 416.886719 137.089844 L 56.046875 137.089844 Z "/>
<g clip-path="url(#clip2)" clip-rule="nonzero">
<path style="fill:none;stroke-width:1.00002;stroke-linecap:square;stroke-linejoin:round;stroke:rgb(0%,0%,100%);stroke-opacity:1;stroke-miterlimit:10;" d="M 56.046875 35.277344 L 59.65625 39.121094 L 63.265625 42.460938 L 66.875 45.109375 L 70.484375 47.460938 L 74.089844 50.140625 L 77.699219 52.378906 L 81.308594 54.566406 L 84.914062 56.765625 L 88.523438 58.855469 L 92.132812 60.941406 L 95.742188 63.035156 L 99.347656 65.273438 L 102.957031 67.210938 L 110.175781 71.03125 L 113.78125 73.027344 L 117.390625 75.230469 L 121 77.335938 L 124.609375 79.328125 L 128.214844 81.214844 L 131.824219 83.191406 L 135.433594 85.253906 L 139.042969 87.402344 L 142.648438 89.410156 L 146.257812 91.296875 L 149.867188 93.117188 L 153.472656 94.9375 L 157.082031 96.5 L 160.691406 98.277344 L 164.300781 100.171875 L 167.910156 101.730469 L 171.515625 103.367188 L 175.125 105.230469 L 178.734375 106.90625 L 182.339844 108.382812 L 185.949219 109.96875 L 189.558594 111.464844 L 193.167969 112.898438 L 196.773438 114.210938 L 200.382812 115.488281 L 203.992188 116.847656 L 207.601562 118.285156 L 211.207031 119.574219 L 214.816406 121.027344 L 218.425781 122.148438 L 222.035156 123.214844 L 225.640625 124.117188 L 229.25 125.109375 L 232.859375 126.144531 L 236.46875 127.074219 L 240.074219 128.140625 L 243.683594 129.050781 L 247.292969 130.261719 L 250.898438 131.105469 L 254.507812 132.089844 L 258.117188 132.816406 L 261.726562 133.902344 L 265.335938 134.542969 L 268.941406 135.410156 L 272.550781 135.820312 L 276.160156 136.546875 L 279.765625 137.304688 L 283.375 137.539062 L 286.984375 138.179688 L 290.59375 138.65625 L 294.199219 139.324219 L 297.808594 139.875 L 301.417969 140.554688 L 305.027344 141.21875 L 308.632812 141.855469 L 312.242188 142.171875 L 315.851562 142.472656 L 319.460938 142.871094 L 323.066406 142.890625 L 326.675781 143.355469 L 330.285156 143.339844 L 333.894531 143.632812 L 337.5 143.78125 L 341.109375 144.164062 L 344.71875 144.71875 L 348.324219 145.050781 L 351.933594 145.425781 L 355.542969 145.835938 L 359.152344 146.203125 L 362.761719 146.703125 L 366.367188 146.84375 L 369.976562 147.1875 L 373.585938 147.488281 L 377.191406 148.015625 L 380.800781 148.257812 L 384.410156 148.464844 L 388.019531 148.839844 L 391.628906 148.964844 L 395.234375 149.109375 L 398.84375 149.425781 L 402.453125 149.558594 L 406.058594 149.832031 L 409.667969 150.109375 L 413.277344 150.425781 L 416.886719 150.726562 " transform="matrix(1,0,0,-1,0,288)"/>
</g>
<path style="fill:none;stroke-width:1.00002;stroke-linecap:square;stroke-linejoin:miter;stroke:rgb(0%,0%,0%);stroke-opacity:1;stroke-miterlimit:10;" d="M 56.046875 150.910156 L 416.886719 150.910156 " transform="matrix(1,0,0,-1,0,288)"/>
<path style="fill:none;stroke-width:1.00002;stroke-linecap:square;stroke-linejoin:miter;stroke:rgb(0%,0%,0%);stroke-opacity:1;stroke-miterlimit:10;" d="M 416.886719 35.265625 L 416.886719 150.910156 " transform="matrix(1,0,0,-1,0,288)"/>
<path style="fill:none;stroke-width:1.00002;stroke-linecap:square;stroke-linejoin:miter;stroke:rgb(0%,0%,0%);stroke-opacity:1;stroke-miterlimit:10;" d="M 56.046875 35.265625 L 416.886719 35.265625 " transform="matrix(1,0,0,-1,0,288)"/>
<path style="fill:none;stroke-width:1.00002;stroke-linecap:square;stroke-linejoin:miter;stroke:rgb(0%,0%,0%);stroke-opacity:1;stroke-miterlimit:10;" d="M 56.046875 35.265625 L 56.046875 150.910156 " transform="matrix(1,0,0,-1,0,288)"/>
<path style="fill:none;stroke-width:0.5;stroke-linecap:butt;stroke-linejoin:round;stroke:rgb(0%,0%,0%);stroke-opacity:1;stroke-miterlimit:10;" d="M -0.001695 0.001265 L -0.001695 4.001265 " transform="matrix(1,0,0,-1,56.04857,252.73564)"/>
<path style="fill:none;stroke-width:0.5;stroke-linecap:butt;stroke-linejoin:round;stroke:rgb(0%,0%,0%);stroke-opacity:1;stroke-miterlimit:10;" d="M -0.001695 0.00001625 L -0.001695 -3.999984 " transform="matrix(1,0,0,-1,56.04857,137.08986)"/>
<g style="fill:rgb(0%,0%,0%);fill-opacity:1;">
  <use xlink:href="#glyph0-1" x="52.63" y="266.01"/>
</g>
<path style="fill:none;stroke-width:0.5;stroke-linecap:butt;stroke-linejoin:round;stroke:rgb(0%,0%,0%);stroke-opacity:1;stroke-miterlimit:10;" d="M -0.00164625 0.001265 L -0.00164625 4.001265 " transform="matrix(1,0,0,-1,128.21649,252.73564)"/>
<path style="fill:none;stroke-width:0.5;stroke-linecap:butt;stroke-linejoin:round;stroke:rgb(0%,0%,0%);stroke-opacity:1;stroke-miterlimit:10;" d="M -0.00164625 0.00001625 L -0.00164625 -3.999984 " transform="matrix(1,0,0,-1,128.21649,137.08986)"/>
<g style="fill:rgb(0%,0%,0%);fill-opacity:1;">
  <use xlink:href="#glyph0-6" x="117.96" y="266.01"/>
  <use xlink:href="#glyph0-1" x="124.79452" y="266.01"/>
  <use xlink:href="#glyph0-1" x="131.62904" y="266.01"/>
</g>
<path style="fill:none;stroke-width:0.5;stroke-linecap:butt;stroke-linejoin:round;stroke:rgb(0%,0%,0%);stroke-opacity:1;stroke-miterlimit:10;" d="M -0.0004875 0.001265 L -0.0004875 4.001265 " transform="matrix(1,0,0,-1,200.3833,252.73564)"/>
<path style="fill:none;stroke-width:0.5;stroke-linecap:butt;stroke-linejoin:round;stroke:rgb(0%,0%,0%);stroke-opacity:1;stroke-miterlimit:10;" d="M -0.0004875 0.00001625 L -0.0004875 -3.999984 " transform="matrix(1,0,0,-1,200.3833,137.08986)"/>
<g style="fill:rgb(0%,0%,0%);fill-opacity:1;">
  <use xlink:href="#glyph0-7" x="190.13" y="266.15"/>
  <use xlink:href="#glyph0-1" x="196.96452" y="266.15"/>
  <use xlink:href="#glyph0-1" x="203.79904" y="266.15"/>
</g>
<path style="fill:none;stroke-width:0.5;stroke-linecap:butt;stroke-linejoin:round;stroke:rgb(0%,0%,0%);stroke-opacity:1;stroke-miterlimit:10;" d="M -0.00043875 0.001265 L -0.00043875 4.001265 " transform="matrix(1,0,0,-1,272.55122,252.73564)"/>
<path style="fill:none;stroke-width:0.5;stroke-linecap:butt;stroke-linejoin:round;stroke:rgb(0%,0%,0%);stroke-opacity:1;stroke-miterlimit:10;" d="M -0.00043875 0.00001625 L -0.00043875 -3.999984 " transform="matrix(1,0,0,-1,272.55122,137.08986)"/>
<g style="fill:rgb(0%,0%,0%);fill-opacity:1;">
  <use xlink:href="#glyph0-5" x="262.3" y="266.01"/>
  <use xlink:href="#glyph0-1" x="269.13452" y="266.01"/>
  <use xlink:href="#glyph0-1" x="275.96904" y="266.01"/>
</g>
<path style="fill:none;stroke-width:0.5;stroke-linecap:butt;stroke-linejoin:round;stroke:rgb(0%,0%,0%);stroke-opacity:1;stroke-miterlimit:10;" d="M 0.0007 0.001265 L 0.0007 4.001265 " transform="matrix(1,0,0,-1,344.71805,252.73564)"/>
<path style="fill:none;stroke-width:0.5;stroke-linecap:butt;stroke-linejoin:round;stroke:rgb(0%,0%,0%);stroke-opacity:1;stroke-miterlimit:10;" d="M 0.0007 0.00001625 L 0.0007 -3.999984 " transform="matrix(1,0,0,-1,344.71805,137.08986)"/>
<g style="fill:rgb(0%,0%,0%);fill-opacity:1;">
  <use xlink:href="#glyph0-4" x="334.46" y="266.01"/>
  <use xlink:href="#glyph0-1" x="341.29452" y="266.01"/>
  <use xlink:href="#glyph0-1" x="348.12904" y="266.01"/>
</g>
<path style="fill:none;stroke-width:0.5;stroke-linecap:butt;stroke-linejoin:round;stroke:rgb(0%,0%,0%);stroke-opacity:1;stroke-miterlimit:10;" d="M 0.00184875 0.001265 L 0.00184875 4.001265 " transform="matrix(1,0,0,-1,416.88487,252.73564)"/>
<path style="fill:none;stroke-width:0.5;stroke-linecap:butt;stroke-linejoin:round;stroke:rgb(0%,0%,0%);stroke-opacity:1;stroke-miterlimit:10;" d="M 0.00184875 0.00001625 L 0.00184875 -3.999984 " transform="matrix(1,0,0,-1,416.88487,137.08986)"/>
<g style="fill:rgb(0%,0%,0%);fill-opacity:1;">
  <use xlink:href="#glyph0-8" x="403.21" y="266.01"/>
  <use xlink:href="#glyph0-1" x="410.04452" y="266.01"/>
  <use xlink:href="#glyph0-1" x="416.87904" y="266.01"/>
  <use xlink:href="#glyph0-1" x="423.71356" y="266.01"/>
</g>
<path style="fill:none;stroke-width:0.5;stroke-linecap:butt;stroke-linejoin:round;stroke:rgb(0%,0%,0%);stroke-opacity:1;stroke-miterlimit:10;" d="M -0.00070625 0.001265 L -0.00070625 2.001265 " transform="matrix(1,0,0,-1,74.09055,252.73564)"/>
<path style="fill:none;stroke-width:0.5;stroke-linecap:butt;stroke-linejoin:round;stroke:rgb(0%,0%,0%);stroke-opacity:1;stroke-miterlimit:10;" d="M -0.00070625 0.00001625 L -0.00070625 -1.999984 " transform="matrix(1,0,0,-1,74.09055,137.08986)"/>
<path style="fill:none;stroke-width:0.5;stroke-linecap:butt;stroke-linejoin:round;stroke:rgb(0%,0%,0%);stroke-opacity:1;stroke-miterlimit:10;" d="M 0.0002925 0.001265 L 0.0002925 2.001265 " transform="matrix(1,0,0,-1,92.13252,252.73564)"/>
<path style="fill:none;stroke-width:0.5;stroke-linecap:butt;stroke-linejoin:round;stroke:rgb(0%,0%,0%);stroke-opacity:1;stroke-miterlimit:10;" d="M 0.0002925 0.00001625 L 0.0002925 -1.999984 " transform="matrix(1,0,0,-1,92.13252,137.08986)"/>
<path style="fill:none;stroke-width:0.5;stroke-linecap:butt;stroke-linejoin:round;stroke:rgb(0%,0%,0%);stroke-opacity:1;stroke-miterlimit:10;" d="M 0.00128125 0.001265 L 0.00128125 2.001265 " transform="matrix(1,0,0,-1,110.1745,252.73564)"/>
<path style="fill:none;stroke-width:0.5;stroke-linecap:butt;stroke-linejoin:round;stroke:rgb(0%,0%,0%);stroke-opacity:1;stroke-miterlimit:10;" d="M 0.00128125 0.00001625 L 0.00128125 -1.999984 " transform="matrix(1,0,0,-1,110.1745,137.08986)"/>
<path style="fill:none;stroke-width:0.5;stroke-linecap:butt;stroke-linejoin:round;stroke:rgb(0%,0%,0%);stroke-opacity:1;stroke-miterlimit:10;" d="M 0.0004625 0.001265 L 0.0004625 2.001265 " transform="matrix(1,0,0,-1,146.25735,252.73564)"/>
<path style="fill:none;stroke-width:0.5;stroke-linecap:butt;stroke-linejoin:round;stroke:rgb(0%,0%,0%);stroke-opacity:1;stroke-miterlimit:10;" d="M 0.0004625 0.00001625 L 0.0004625 -1.999984 " transform="matrix(1,0,0,-1,146.25735,137.08986)"/>
<path style="fill:none;stroke-width:0.5;stroke-linecap:butt;stroke-linejoin:round;stroke:rgb(0%,0%,0%);stroke-opacity:1;stroke-miterlimit:10;" d="M 0.00143125 0.001265 L 0.00143125 2.001265 " transform="matrix(1,0,0,-1,164.29935,252.73564)"/>
<path style="fill:none;stroke-width:0.5;stroke-linecap:butt;stroke-linejoin:round;stroke:rgb(0%,0%,0%);stroke-opacity:1;stroke-miterlimit:10;" d="M 0.00143125 0.00001625 L 0.00143125 -1.999984 " transform="matrix(1,0,0,-1,164.29935,137.08986)"/>
<path style="fill:none;stroke-width:0.5;stroke-linecap:butt;stroke-linejoin:round;stroke:rgb(0%,0%,0%);stroke-opacity:1;stroke-miterlimit:10;" d="M -0.00147625 0.001265 L -0.00147625 2.001265 " transform="matrix(1,0,0,-1,182.34132,252.73564)"/>
<path style="fill:none;stroke-width:0.5;stroke-linecap:butt;stroke-linejoin:round;stroke:rgb(0%,0%,0%);stroke-opacity:1;stroke-miterlimit:10;" d="M -0.00147625 0.00001625 L -0.00147625 -1.999984 " transform="matrix(1,0,0,-1,182.34132,137.08986)"/>
<path style="fill:none;stroke-width:0.5;stroke-linecap:butt;stroke-linejoin:round;stroke:rgb(0%,0%,0%);stroke-opacity:1;stroke-miterlimit:10;" d="M 0.00048125 0.001265 L 0.00048125 2.001265 " transform="matrix(1,0,0,-1,218.4253,252.73564)"/>
<path style="fill:none;stroke-width:0.5;stroke-linecap:butt;stroke-linejoin:round;stroke:rgb(0%,0%,0%);stroke-opacity:1;stroke-miterlimit:10;" d="M 0.00048125 0.00001625 L 0.00048125 -1.999984 " transform="matrix(1,0,0,-1,218.4253,137.08986)"/>
<path style="fill:none;stroke-width:0.5;stroke-linecap:butt;stroke-linejoin:round;stroke:rgb(0%,0%,0%);stroke-opacity:1;stroke-miterlimit:10;" d="M 0.00148 0.001265 L 0.00148 2.001265 " transform="matrix(1,0,0,-1,236.46727,252.73564)"/>
<path style="fill:none;stroke-width:0.5;stroke-linecap:butt;stroke-linejoin:round;stroke:rgb(0%,0%,0%);stroke-opacity:1;stroke-miterlimit:10;" d="M 0.00148 0.00001625 L 0.00148 -1.999984 " transform="matrix(1,0,0,-1,236.46727,137.08986)"/>
<path style="fill:none;stroke-width:0.5;stroke-linecap:butt;stroke-linejoin:round;stroke:rgb(0%,0%,0%);stroke-opacity:1;stroke-miterlimit:10;" d="M -0.0014375 0.001265 L -0.0014375 2.001265 " transform="matrix(1,0,0,-1,254.50925,252.73564)"/>
<path style="fill:none;stroke-width:0.5;stroke-linecap:butt;stroke-linejoin:round;stroke:rgb(0%,0%,0%);stroke-opacity:1;stroke-miterlimit:10;" d="M -0.0014375 0.00001625 L -0.0014375 -1.999984 " transform="matrix(1,0,0,-1,254.50925,137.08986)"/>
<path style="fill:none;stroke-width:0.5;stroke-linecap:butt;stroke-linejoin:round;stroke:rgb(0%,0%,0%);stroke-opacity:1;stroke-miterlimit:10;" d="M 0.00163 0.001265 L 0.00163 2.001265 " transform="matrix(1,0,0,-1,290.59212,252.73564)"/>
<path style="fill:none;stroke-width:0.5;stroke-linecap:butt;stroke-linejoin:round;stroke:rgb(0%,0%,0%);stroke-opacity:1;stroke-miterlimit:10;" d="M 0.00163 0.00001625 L 0.00163 -1.999984 " transform="matrix(1,0,0,-1,290.59212,137.08986)"/>
<path style="fill:none;stroke-width:0.5;stroke-linecap:butt;stroke-linejoin:round;stroke:rgb(0%,0%,0%);stroke-opacity:1;stroke-miterlimit:10;" d="M -0.0012675 0.001265 L -0.0012675 2.001265 " transform="matrix(1,0,0,-1,308.63408,252.73564)"/>
<path style="fill:none;stroke-width:0.5;stroke-linecap:butt;stroke-linejoin:round;stroke:rgb(0%,0%,0%);stroke-opacity:1;stroke-miterlimit:10;" d="M -0.0012675 0.00001625 L -0.0012675 -1.999984 " transform="matrix(1,0,0,-1,308.63408,137.08986)"/>
<path style="fill:none;stroke-width:0.5;stroke-linecap:butt;stroke-linejoin:round;stroke:rgb(0%,0%,0%);stroke-opacity:1;stroke-miterlimit:10;" d="M -0.00028875 0.001265 L -0.00028875 2.001265 " transform="matrix(1,0,0,-1,326.67607,252.73564)"/>
<path style="fill:none;stroke-width:0.5;stroke-linecap:butt;stroke-linejoin:round;stroke:rgb(0%,0%,0%);stroke-opacity:1;stroke-miterlimit:10;" d="M -0.00028875 0.00001625 L -0.00028875 -1.999984 " transform="matrix(1,0,0,-1,326.67607,137.08986)"/>
<path style="fill:none;stroke-width:0.5;stroke-linecap:butt;stroke-linejoin:round;stroke:rgb(0%,0%,0%);stroke-opacity:1;stroke-miterlimit:10;" d="M 0.00168875 0.001265 L 0.00168875 2.001265 " transform="matrix(1,0,0,-1,362.76003,252.73564)"/>
<path style="fill:none;stroke-width:0.5;stroke-linecap:butt;stroke-linejoin:round;stroke:rgb(0%,0%,0%);stroke-opacity:1;stroke-miterlimit:10;" d="M 0.00168875 0.00001625 L 0.00168875 -1.999984 " transform="matrix(1,0,0,-1,362.76003,137.08986)"/>
<path style="fill:none;stroke-width:0.5;stroke-linecap:butt;stroke-linejoin:round;stroke:rgb(0%,0%,0%);stroke-opacity:1;stroke-miterlimit:10;" d="M -0.00123875 0.001265 L -0.00123875 2.001265 " transform="matrix(1,0,0,-1,380.80202,252.73564)"/>
<path style="fill:none;stroke-width:0.5;stroke-linecap:butt;stroke-linejoin:round;stroke:rgb(0%,0%,0%);stroke-opacity:1;stroke-miterlimit:10;" d="M -0.00123875 0.00001625 L -0.00123875 -1.999984 " transform="matrix(1,0,0,-1,380.80202,137.08986)"/>
<path style="fill:none;stroke-width:0.5;stroke-linecap:butt;stroke-linejoin:round;stroke:rgb(0%,0%,0%);stroke-opacity:1;stroke-miterlimit:10;" d="M -0.00025 0.001265 L -0.00025 2.001265 " transform="matrix(1,0,0,-1,398.844,252.73564)"/>
<path style="fill:none;stroke-width:0.5;stroke-linecap:butt;stroke-linejoin:round;stroke:rgb(0%,0%,0%);stroke-opacity:1;stroke-miterlimit:10;" d="M -0.00025 0.00001625 L -0.00025 -1.999984 " transform="matrix(1,0,0,-1,398.844,137.08986)"/>
<g style="fill:rgb(0%,0%,0%);fill-opacity:1;">
  <use xlink:href="#glyph4-1" x="233.93" y="282.99"/>
</g>
<path style="fill:none;stroke-width:0.5;stroke-linecap:butt;stroke-linejoin:round;stroke:rgb(0%,0%,0%);stroke-opacity:1;stroke-miterlimit:10;" d="M -0.001695 0.001265 L 3.998305 0.001265 " transform="matrix(1,0,0,-1,56.04857,252.73564)"/>
<path style="fill:none;stroke-width:0.5;stroke-linecap:butt;stroke-linejoin:round;stroke:rgb(0%,0%,0%);stroke-opacity:1;stroke-miterlimit:10;" d="M 0.00184875 0.001265 L -4.002058 0.001265 " transform="matrix(1,0,0,-1,416.88487,252.73564)"/>
<g style="fill:rgb(0%,0%,0%);fill-opacity:1;">
  <use xlink:href="#glyph0-1" x="20.92" y="257.23"/>
  <use xlink:href="#glyph0-2" x="27.75452" y="257.23"/>
  <use xlink:href="#glyph0-1" x="31.548376" y="257.23"/>
  <use xlink:href="#glyph0-1" x="38.382896" y="257.23"/>
  <use xlink:href="#glyph0-1" x="45.217416" y="257.23"/>
</g>
<path style="fill:none;stroke-width:0.5;stroke-linecap:butt;stroke-linejoin:round;stroke:rgb(0%,0%,0%);stroke-opacity:1;stroke-miterlimit:10;" d="M -0.001695 0.00044625 L 3.998305 0.00044625 " transform="matrix(1,0,0,-1,56.04857,236.21529)"/>
<path style="fill:none;stroke-width:0.5;stroke-linecap:butt;stroke-linejoin:round;stroke:rgb(0%,0%,0%);stroke-opacity:1;stroke-miterlimit:10;" d="M 0.00184875 0.00044625 L -4.002058 0.00044625 " transform="matrix(1,0,0,-1,416.88487,236.21529)"/>
<g style="fill:rgb(0%,0%,0%);fill-opacity:1;">
  <use xlink:href="#glyph0-1" x="20.92" y="240.71"/>
  <use xlink:href="#glyph0-2" x="27.75452" y="240.71"/>
  <use xlink:href="#glyph0-1" x="31.548376" y="240.71"/>
  <use xlink:href="#glyph0-1" x="38.382896" y="240.71"/>
  <use xlink:href="#glyph0-6" x="45.217416" y="240.71"/>
</g>
<path style="fill:none;stroke-width:0.5;stroke-linecap:butt;stroke-linejoin:round;stroke:rgb(0%,0%,0%);stroke-opacity:1;stroke-miterlimit:10;" d="M -0.001695 -0.0014825 L 3.998305 -0.0014825 " transform="matrix(1,0,0,-1,56.04857,219.69383)"/>
<path style="fill:none;stroke-width:0.5;stroke-linecap:butt;stroke-linejoin:round;stroke:rgb(0%,0%,0%);stroke-opacity:1;stroke-miterlimit:10;" d="M 0.00184875 -0.0014825 L -4.002058 -0.0014825 " transform="matrix(1,0,0,-1,416.88487,219.69383)"/>
<g style="fill:rgb(0%,0%,0%);fill-opacity:1;">
  <use xlink:href="#glyph0-1" x="20.92" y="224.26"/>
  <use xlink:href="#glyph0-2" x="27.75452" y="224.26"/>
  <use xlink:href="#glyph0-1" x="31.548376" y="224.26"/>
  <use xlink:href="#glyph0-1" x="38.382896" y="224.26"/>
  <use xlink:href="#glyph0-7" x="45.217416" y="224.26"/>
</g>
<path style="fill:none;stroke-width:0.5;stroke-linecap:butt;stroke-linejoin:round;stroke:rgb(0%,0%,0%);stroke-opacity:1;stroke-miterlimit:10;" d="M -0.001695 0.001625 L 3.998305 0.001625 " transform="matrix(1,0,0,-1,56.04857,203.1735)"/>
<path style="fill:none;stroke-width:0.5;stroke-linecap:butt;stroke-linejoin:round;stroke:rgb(0%,0%,0%);stroke-opacity:1;stroke-miterlimit:10;" d="M 0.00184875 0.001625 L -4.002058 0.001625 " transform="matrix(1,0,0,-1,416.88487,203.1735)"/>
<g style="fill:rgb(0%,0%,0%);fill-opacity:1;">
  <use xlink:href="#glyph0-1" x="20.92" y="207.67"/>
  <use xlink:href="#glyph0-2" x="27.75452" y="207.67"/>
  <use xlink:href="#glyph0-1" x="31.548376" y="207.67"/>
  <use xlink:href="#glyph0-1" x="38.382896" y="207.67"/>
  <use xlink:href="#glyph0-5" x="45.217416" y="207.67"/>
</g>
<path style="fill:none;stroke-width:0.5;stroke-linecap:butt;stroke-linejoin:round;stroke:rgb(0%,0%,0%);stroke-opacity:1;stroke-miterlimit:10;" d="M -0.001695 -0.00030375 L 3.998305 -0.00030375 " transform="matrix(1,0,0,-1,56.04857,186.65204)"/>
<path style="fill:none;stroke-width:0.5;stroke-linecap:butt;stroke-linejoin:round;stroke:rgb(0%,0%,0%);stroke-opacity:1;stroke-miterlimit:10;" d="M 0.00184875 -0.00030375 L -4.002058 -0.00030375 " transform="matrix(1,0,0,-1,416.88487,186.65204)"/>
<g style="fill:rgb(0%,0%,0%);fill-opacity:1;">
  <use xlink:href="#glyph0-1" x="20.92" y="191.14"/>
  <use xlink:href="#glyph0-2" x="27.75452" y="191.14"/>
  <use xlink:href="#glyph0-1" x="31.548376" y="191.14"/>
  <use xlink:href="#glyph0-1" x="38.382896" y="191.14"/>
  <use xlink:href="#glyph0-4" x="45.217416" y="191.14"/>
</g>
<path style="fill:none;stroke-width:0.5;stroke-linecap:butt;stroke-linejoin:round;stroke:rgb(0%,0%,0%);stroke-opacity:1;stroke-miterlimit:10;" d="M -0.001695 -0.0011325 L 3.998305 -0.0011325 " transform="matrix(1,0,0,-1,56.04857,170.13168)"/>
<path style="fill:none;stroke-width:0.5;stroke-linecap:butt;stroke-linejoin:round;stroke:rgb(0%,0%,0%);stroke-opacity:1;stroke-miterlimit:10;" d="M 0.00184875 -0.0011325 L -4.002058 -0.0011325 " transform="matrix(1,0,0,-1,416.88487,170.13168)"/>
<g style="fill:rgb(0%,0%,0%);fill-opacity:1;">
  <use xlink:href="#glyph0-1" x="20.92" y="174.62"/>
  <use xlink:href="#glyph0-2" x="27.75452" y="174.62"/>
  <use xlink:href="#glyph0-1" x="31.548376" y="174.62"/>
  <use xlink:href="#glyph0-8" x="38.382896" y="174.62"/>
  <use xlink:href="#glyph0-1" x="45.217416" y="174.62"/>
</g>
<path style="fill:none;stroke-width:0.5;stroke-linecap:butt;stroke-linejoin:round;stroke:rgb(0%,0%,0%);stroke-opacity:1;stroke-miterlimit:10;" d="M -0.001695 -0.00195125 L 3.998305 -0.00195125 " transform="matrix(1,0,0,-1,56.04857,153.61133)"/>
<path style="fill:none;stroke-width:0.5;stroke-linecap:butt;stroke-linejoin:round;stroke:rgb(0%,0%,0%);stroke-opacity:1;stroke-miterlimit:10;" d="M 0.00184875 -0.00195125 L -4.002058 -0.00195125 " transform="matrix(1,0,0,-1,416.88487,153.61133)"/>
<g style="fill:rgb(0%,0%,0%);fill-opacity:1;">
  <use xlink:href="#glyph0-1" x="20.92" y="158.1"/>
  <use xlink:href="#glyph0-2" x="27.75452" y="158.1"/>
  <use xlink:href="#glyph0-1" x="31.548376" y="158.1"/>
  <use xlink:href="#glyph0-8" x="38.382896" y="158.1"/>
  <use xlink:href="#glyph0-6" x="45.217416" y="158.1"/>
</g>
<path style="fill:none;stroke-width:0.5;stroke-linecap:butt;stroke-linejoin:round;stroke:rgb(0%,0%,0%);stroke-opacity:1;stroke-miterlimit:10;" d="M -0.001695 0.00001625 L 3.998305 0.00001625 " transform="matrix(1,0,0,-1,56.04857,137.08986)"/>
<path style="fill:none;stroke-width:0.5;stroke-linecap:butt;stroke-linejoin:round;stroke:rgb(0%,0%,0%);stroke-opacity:1;stroke-miterlimit:10;" d="M 0.00184875 0.00001625 L -4.002058 0.00001625 " transform="matrix(1,0,0,-1,416.88487,137.08986)"/>
<g style="fill:rgb(0%,0%,0%);fill-opacity:1;">
  <use xlink:href="#glyph0-1" x="20.92" y="141.65"/>
  <use xlink:href="#glyph0-2" x="27.75452" y="141.65"/>
  <use xlink:href="#glyph0-1" x="31.548376" y="141.65"/>
  <use xlink:href="#glyph0-8" x="38.382896" y="141.65"/>
  <use xlink:href="#glyph0-7" x="45.217416" y="141.65"/>
</g>
<path style="fill:none;stroke-width:0.5;stroke-linecap:butt;stroke-linejoin:round;stroke:rgb(0%,0%,0%);stroke-opacity:1;stroke-miterlimit:10;" d="M -0.001695 0.00036125 L 1.998305 0.00036125 " transform="matrix(1,0,0,-1,56.04857,248.60583)"/>
<path style="fill:none;stroke-width:0.5;stroke-linecap:butt;stroke-linejoin:round;stroke:rgb(0%,0%,0%);stroke-opacity:1;stroke-miterlimit:10;" d="M 0.00184875 0.00036125 L -1.998151 0.00036125 " transform="matrix(1,0,0,-1,416.88487,248.60583)"/>
<path style="fill:none;stroke-width:0.5;stroke-linecap:butt;stroke-linejoin:round;stroke:rgb(0%,0%,0%);stroke-opacity:1;stroke-miterlimit:10;" d="M -0.001695 -0.0016525 L 1.998305 -0.0016525 " transform="matrix(1,0,0,-1,56.04857,244.47491)"/>
<path style="fill:none;stroke-width:0.5;stroke-linecap:butt;stroke-linejoin:round;stroke:rgb(0%,0%,0%);stroke-opacity:1;stroke-miterlimit:10;" d="M 0.00184875 -0.0016525 L -1.998151 -0.0016525 " transform="matrix(1,0,0,-1,416.88487,244.47491)"/>
<path style="fill:none;stroke-width:0.5;stroke-linecap:butt;stroke-linejoin:round;stroke:rgb(0%,0%,0%);stroke-opacity:1;stroke-miterlimit:10;" d="M -0.001695 0.00136 L 1.998305 0.00136 " transform="matrix(1,0,0,-1,56.04857,240.34511)"/>
<path style="fill:none;stroke-width:0.5;stroke-linecap:butt;stroke-linejoin:round;stroke:rgb(0%,0%,0%);stroke-opacity:1;stroke-miterlimit:10;" d="M 0.00184875 0.00136 L -1.998151 0.00136 " transform="matrix(1,0,0,-1,416.88487,240.34511)"/>
<path style="fill:none;stroke-width:0.5;stroke-linecap:butt;stroke-linejoin:round;stroke:rgb(0%,0%,0%);stroke-opacity:1;stroke-miterlimit:10;" d="M -0.001695 -0.0015575 L 1.998305 -0.0015575 " transform="matrix(1,0,0,-1,56.04857,232.08438)"/>
<path style="fill:none;stroke-width:0.5;stroke-linecap:butt;stroke-linejoin:round;stroke:rgb(0%,0%,0%);stroke-opacity:1;stroke-miterlimit:10;" d="M 0.00184875 -0.0015575 L -1.998151 -0.0015575 " transform="matrix(1,0,0,-1,416.88487,232.08438)"/>
<path style="fill:none;stroke-width:0.5;stroke-linecap:butt;stroke-linejoin:round;stroke:rgb(0%,0%,0%);stroke-opacity:1;stroke-miterlimit:10;" d="M -0.001695 0.001435 L 1.998305 0.001435 " transform="matrix(1,0,0,-1,56.04857,227.95456)"/>
<path style="fill:none;stroke-width:0.5;stroke-linecap:butt;stroke-linejoin:round;stroke:rgb(0%,0%,0%);stroke-opacity:1;stroke-miterlimit:10;" d="M 0.00184875 0.001435 L -1.998151 0.001435 " transform="matrix(1,0,0,-1,416.88487,227.95456)"/>
<path style="fill:none;stroke-width:0.5;stroke-linecap:butt;stroke-linejoin:round;stroke:rgb(0%,0%,0%);stroke-opacity:1;stroke-miterlimit:10;" d="M -0.001695 0.00053125 L 1.998305 0.00053125 " transform="matrix(1,0,0,-1,56.04857,223.82475)"/>
<path style="fill:none;stroke-width:0.5;stroke-linecap:butt;stroke-linejoin:round;stroke:rgb(0%,0%,0%);stroke-opacity:1;stroke-miterlimit:10;" d="M 0.00184875 0.00053125 L -1.998151 0.00053125 " transform="matrix(1,0,0,-1,416.88487,223.82475)"/>
<path style="fill:none;stroke-width:0.5;stroke-linecap:butt;stroke-linejoin:round;stroke:rgb(0%,0%,0%);stroke-opacity:1;stroke-miterlimit:10;" d="M -0.001695 0.00153 L 1.998305 0.00153 " transform="matrix(1,0,0,-1,56.04857,215.56403)"/>
<path style="fill:none;stroke-width:0.5;stroke-linecap:butt;stroke-linejoin:round;stroke:rgb(0%,0%,0%);stroke-opacity:1;stroke-miterlimit:10;" d="M 0.00184875 0.00153 L -1.998151 0.00153 " transform="matrix(1,0,0,-1,416.88487,215.56403)"/>
<path style="fill:none;stroke-width:0.5;stroke-linecap:butt;stroke-linejoin:round;stroke:rgb(0%,0%,0%);stroke-opacity:1;stroke-miterlimit:10;" d="M -0.001695 -0.00047375 L 1.998305 -0.00047375 " transform="matrix(1,0,0,-1,56.04857,211.43312)"/>
<path style="fill:none;stroke-width:0.5;stroke-linecap:butt;stroke-linejoin:round;stroke:rgb(0%,0%,0%);stroke-opacity:1;stroke-miterlimit:10;" d="M 0.00184875 -0.00047375 L -1.998151 -0.00047375 " transform="matrix(1,0,0,-1,416.88487,211.43312)"/>
<path style="fill:none;stroke-width:0.5;stroke-linecap:butt;stroke-linejoin:round;stroke:rgb(0%,0%,0%);stroke-opacity:1;stroke-miterlimit:10;" d="M -0.001695 -0.0013875 L 1.998305 -0.0013875 " transform="matrix(1,0,0,-1,56.04857,207.3033)"/>
<path style="fill:none;stroke-width:0.5;stroke-linecap:butt;stroke-linejoin:round;stroke:rgb(0%,0%,0%);stroke-opacity:1;stroke-miterlimit:10;" d="M 0.00184875 -0.0013875 L -1.998151 -0.0013875 " transform="matrix(1,0,0,-1,416.88487,207.3033)"/>
<path style="fill:none;stroke-width:0.5;stroke-linecap:butt;stroke-linejoin:round;stroke:rgb(0%,0%,0%);stroke-opacity:1;stroke-miterlimit:10;" d="M -0.001695 -0.00039875 L 1.998305 -0.00039875 " transform="matrix(1,0,0,-1,56.04857,199.04257)"/>
<path style="fill:none;stroke-width:0.5;stroke-linecap:butt;stroke-linejoin:round;stroke:rgb(0%,0%,0%);stroke-opacity:1;stroke-miterlimit:10;" d="M 0.00184875 -0.00039875 L -1.998151 -0.00039875 " transform="matrix(1,0,0,-1,416.88487,199.04257)"/>
<path style="fill:none;stroke-width:0.5;stroke-linecap:butt;stroke-linejoin:round;stroke:rgb(0%,0%,0%);stroke-opacity:1;stroke-miterlimit:10;" d="M -0.001695 -0.0012925 L 1.998305 -0.0012925 " transform="matrix(1,0,0,-1,56.04857,194.91277)"/>
<path style="fill:none;stroke-width:0.5;stroke-linecap:butt;stroke-linejoin:round;stroke:rgb(0%,0%,0%);stroke-opacity:1;stroke-miterlimit:10;" d="M 0.00184875 -0.0012925 L -1.998151 -0.0012925 " transform="matrix(1,0,0,-1,416.88487,194.91277)"/>
<path style="fill:none;stroke-width:0.5;stroke-linecap:butt;stroke-linejoin:round;stroke:rgb(0%,0%,0%);stroke-opacity:1;stroke-miterlimit:10;" d="M -0.001695 0.00169 L 1.998305 0.00169 " transform="matrix(1,0,0,-1,56.04857,190.78294)"/>
<path style="fill:none;stroke-width:0.5;stroke-linecap:butt;stroke-linejoin:round;stroke:rgb(0%,0%,0%);stroke-opacity:1;stroke-miterlimit:10;" d="M 0.00184875 0.00169 L -1.998151 0.00169 " transform="matrix(1,0,0,-1,416.88487,190.78294)"/>
<path style="fill:none;stroke-width:0.5;stroke-linecap:butt;stroke-linejoin:round;stroke:rgb(0%,0%,0%);stroke-opacity:1;stroke-miterlimit:10;" d="M -0.001695 -0.0012175 L 1.998305 -0.0012175 " transform="matrix(1,0,0,-1,56.04857,182.52222)"/>
<path style="fill:none;stroke-width:0.5;stroke-linecap:butt;stroke-linejoin:round;stroke:rgb(0%,0%,0%);stroke-opacity:1;stroke-miterlimit:10;" d="M 0.00184875 -0.0012175 L -1.998151 -0.0012175 " transform="matrix(1,0,0,-1,416.88487,182.52222)"/>
<path style="fill:none;stroke-width:0.5;stroke-linecap:butt;stroke-linejoin:round;stroke:rgb(0%,0%,0%);stroke-opacity:1;stroke-miterlimit:10;" d="M -0.001695 0.001785 L 1.998305 0.001785 " transform="matrix(1,0,0,-1,56.04857,178.39241)"/>
<path style="fill:none;stroke-width:0.5;stroke-linecap:butt;stroke-linejoin:round;stroke:rgb(0%,0%,0%);stroke-opacity:1;stroke-miterlimit:10;" d="M 0.00184875 0.001785 L -1.998151 0.001785 " transform="matrix(1,0,0,-1,416.88487,178.39241)"/>
<path style="fill:none;stroke-width:0.5;stroke-linecap:butt;stroke-linejoin:round;stroke:rgb(0%,0%,0%);stroke-opacity:1;stroke-miterlimit:10;" d="M -0.001695 -0.00024875 L 1.998305 -0.00024875 " transform="matrix(1,0,0,-1,56.04857,174.26147)"/>
<path style="fill:none;stroke-width:0.5;stroke-linecap:butt;stroke-linejoin:round;stroke:rgb(0%,0%,0%);stroke-opacity:1;stroke-miterlimit:10;" d="M 0.00184875 -0.00024875 L -1.998151 -0.00024875 " transform="matrix(1,0,0,-1,416.88487,174.26147)"/>
<path style="fill:none;stroke-width:0.5;stroke-linecap:butt;stroke-linejoin:round;stroke:rgb(0%,0%,0%);stroke-opacity:1;stroke-miterlimit:10;" d="M -0.001695 0.00186 L 1.998305 0.00186 " transform="matrix(1,0,0,-1,56.04857,166.00186)"/>
<path style="fill:none;stroke-width:0.5;stroke-linecap:butt;stroke-linejoin:round;stroke:rgb(0%,0%,0%);stroke-opacity:1;stroke-miterlimit:10;" d="M 0.00184875 0.00186 L -1.998151 0.00186 " transform="matrix(1,0,0,-1,416.88487,166.00186)"/>
<path style="fill:none;stroke-width:0.5;stroke-linecap:butt;stroke-linejoin:round;stroke:rgb(0%,0%,0%);stroke-opacity:1;stroke-miterlimit:10;" d="M -0.001695 -0.00015375 L 1.998305 -0.00015375 " transform="matrix(1,0,0,-1,56.04857,161.87094)"/>
<path style="fill:none;stroke-width:0.5;stroke-linecap:butt;stroke-linejoin:round;stroke:rgb(0%,0%,0%);stroke-opacity:1;stroke-miterlimit:10;" d="M 0.00184875 -0.00015375 L -1.998151 -0.00015375 " transform="matrix(1,0,0,-1,416.88487,161.87094)"/>
<path style="fill:none;stroke-width:0.5;stroke-linecap:butt;stroke-linejoin:round;stroke:rgb(0%,0%,0%);stroke-opacity:1;stroke-miterlimit:10;" d="M -0.001695 -0.0010675 L 1.998305 -0.0010675 " transform="matrix(1,0,0,-1,56.04857,157.74112)"/>
<path style="fill:none;stroke-width:0.5;stroke-linecap:butt;stroke-linejoin:round;stroke:rgb(0%,0%,0%);stroke-opacity:1;stroke-miterlimit:10;" d="M 0.00184875 -0.0010675 L -1.998151 -0.0010675 " transform="matrix(1,0,0,-1,416.88487,157.74112)"/>
<path style="fill:none;stroke-width:0.5;stroke-linecap:butt;stroke-linejoin:round;stroke:rgb(0%,0%,0%);stroke-opacity:1;stroke-miterlimit:10;" d="M -0.001695 -0.00005875 L 1.998305 -0.00005875 " transform="matrix(1,0,0,-1,56.04857,149.48041)"/>
<path style="fill:none;stroke-width:0.5;stroke-linecap:butt;stroke-linejoin:round;stroke:rgb(0%,0%,0%);stroke-opacity:1;stroke-miterlimit:10;" d="M 0.00184875 -0.00005875 L -1.998151 -0.00005875 " transform="matrix(1,0,0,-1,416.88487,149.48041)"/>
<path style="fill:none;stroke-width:0.5;stroke-linecap:butt;stroke-linejoin:round;stroke:rgb(0%,0%,0%);stroke-opacity:1;stroke-miterlimit:10;" d="M -0.001695 -0.0009725 L 1.998305 -0.0009725 " transform="matrix(1,0,0,-1,56.04857,145.35059)"/>
<path style="fill:none;stroke-width:0.5;stroke-linecap:butt;stroke-linejoin:round;stroke:rgb(0%,0%,0%);stroke-opacity:1;stroke-miterlimit:10;" d="M 0.00184875 -0.0009725 L -1.998151 -0.0009725 " transform="matrix(1,0,0,-1,416.88487,145.35059)"/>
<path style="fill:none;stroke-width:0.5;stroke-linecap:butt;stroke-linejoin:round;stroke:rgb(0%,0%,0%);stroke-opacity:1;stroke-miterlimit:10;" d="M -0.001695 -0.00189625 L 1.998305 -0.00189625 " transform="matrix(1,0,0,-1,56.04857,141.22076)"/>
<path style="fill:none;stroke-width:0.5;stroke-linecap:butt;stroke-linejoin:round;stroke:rgb(0%,0%,0%);stroke-opacity:1;stroke-miterlimit:10;" d="M 0.00184875 -0.00189625 L -1.998151 -0.00189625 " transform="matrix(1,0,0,-1,416.88487,141.22076)"/>
<g style="fill:rgb(0%,0%,0%);fill-opacity:1;">
  <use xlink:href="#glyph1-1" x="12.21" y="211.02"/>
</g>
<g style="fill:rgb(0%,0%,0%);fill-opacity:1;">
  <use xlink:href="#glyph2-2" x="14.36" y="202.22"/>
</g>
<g style="fill:rgb(0%,0%,0%);fill-opacity:1;">
  <use xlink:href="#glyph3-1" x="12.21" y="194.81"/>
</g>
<g style="fill:rgb(0%,0%,0%);fill-opacity:1;">
  <use xlink:href="#glyph1-2" x="12.21" y="189.34"/>
</g>
<g style="fill:rgb(0%,0%,0%);fill-opacity:1;">
  <use xlink:href="#glyph3-2" x="12.21" y="184.27"/>
</g>
</g>
</svg>
